<?xml version="1.0" encoding="UTF-8" standalone="no"?>
<svg width="5px" height="9px" viewBox="0 0 5 9" version="1.1" xmlns="http://www.w3.org/2000/svg" xmlns:xlink="http://www.w3.org/1999/xlink">
    <!-- Generator: Sketch 40.3 (33839) - http://www.bohemiancoding.com/sketch -->
    <title>Fill 1 Copy 10</title>
    <desc>Created with Sketch.</desc>
    <defs></defs>
    <g id="main_hover_1920" stroke="none" stroke-width="1" fill="none" fill-rule="evenodd">
        <g id="pravki_menu_1" transform="translate(-304.000000, -284.000000)" fill="#4D4D4D">
            <g id="Group-13" transform="translate(0.000000, 163.000000)">
                <g id="Group-19" transform="translate(0.000000, 13.000000)">
                    <g id="right-arrow" transform="translate(304.000000, 13.000000)">
                        <path d="M0.560175,103.793168 C0.496075,103.854444 0.415975,103.885178 0.328075,103.885178 C0.239775,103.885178 0.160175,103.854444 0.096075,103.793168 C-0.032025,103.670519 -0.032025,103.471465 0.096075,103.348816 L4.176175,99.4423378 L0.096075,95.5363378 C-0.032025,95.4135931 -0.032025,95.2142527 0.096075,95.0919867 C0.223775,94.9693378 0.431975,94.9693378 0.560175,95.0919867 L4.871875,99.2202101 C4.999975,99.342859 4.999975,99.5421995 4.871875,99.6645612 L0.560175,103.793168 Z" id="Fill-1-Copy-10"></path>
                    </g>
                </g>
            </g>
        </g>
    </g>
</svg>