<?xml version="1.0" encoding="UTF-8" standalone="no"?>
<svg width="50px" height="21px" viewBox="0 0 50 21" version="1.1" xmlns="http://www.w3.org/2000/svg" xmlns:xlink="http://www.w3.org/1999/xlink">
    <!-- Generator: Sketch 40.3 (33839) - http://www.bohemiancoding.com/sketch -->
    <title>-</title>
    <desc>Created with Sketch.</desc>
    <defs>
        <polygon id="path-1" points="28.001753 0 0.00175298805 0 0.00175298805 26.5 28.001753 26.5 28.001753 8.25719647e-15"></polygon>
        <polygon id="path-3" points="28.001753 0 0.00175298805 0 0.00175298805 26.5 28.001753 26.5 28.001753 8.25719647e-15"></polygon>
    </defs>
    <g id="Page-1" stroke="none" stroke-width="1" fill="none" fill-rule="evenodd">
        <g id="-" transform="translate(-3.000000, -3.000000)">
            <mask id="mask-2" fill="white">
                <use xlink:href="#path-1"></use>
            </mask>
            <g id="Clip-2"></g>
            <path d="M23.705617,9.8581974 L17.6717883,9.77282247 L15.269927,3.83056976 C14.8068613,2.73373082 13.1907793,2.73373082 12.7301107,3.83056976 L10.3282495,9.77282247 L4.29427463,9.8581974 C3.04545879,9.9278683 2.53795743,11.435906 3.50621506,12.193324 L8.39880882,16.2701106 L6.73133358,21.8370395 C6.40382565,22.9810748 7.6925166,23.9249468 8.75429364,23.318192 L13.9999458,20.5605732 L19.2457441,23.3158884 C20.3075212,23.9227275 21.5960952,22.9787712 21.2687042,21.8348482 L19.601229,16.2679193 L24.4937935,12.1910204 C25.4620511,11.4337147 24.954579,9.92556466 23.705617,9.8581974 L23.705617,9.8581974 Z" id="Fill-1" fill="#C3C3C3" mask="url(#mask-2)"></path>
            <g transform="translate(28.000000, 0.000000)">
                <mask id="mask-4" fill="white">
                    <use xlink:href="#path-3"></use>
                </mask>
                <g id="Clip-2"></g>
                <path d="M23.705617,9.8581974 L17.6717883,9.77282247 L15.269927,3.83056976 C14.8068613,2.73373082 13.1907793,2.73373082 12.7301107,3.83056976 L10.3282495,9.77282247 L4.29427463,9.8581974 C3.04545879,9.9278683 2.53795743,11.435906 3.50621506,12.193324 L8.39880882,16.2701106 L6.73133358,21.8370395 C6.40382565,22.9810748 7.6925166,23.9249468 8.75429364,23.318192 L13.9999458,20.5605732 L19.2457441,23.3158884 C20.3075212,23.9227275 21.5960952,22.9787712 21.2687042,21.8348482 L19.601229,16.2679193 L24.4937935,12.1910204 C25.4620511,11.4337147 24.954579,9.92556466 23.705617,9.8581974 L23.705617,9.8581974 Z" id="Fill-1" fill="#F6BE06" mask="url(#mask-4)"></path>
            </g>
        </g>
    </g>
</svg>