<svg xmlns="http://www.w3.org/2000/svg" width="1455" height="402" viewBox="0 0 1455 402" xmlns:xlink="http://www.w3.org/1999/xlink">
  <defs>
    <linearGradient id="a" x1="55.546%" x2="55.546%" y1="59.546%" y2=".753%">
      <stop stop-color="#FFF88F" offset="0%"/>
      <stop stop-color="#FAE8E0" offset="50.361%"/>
      <stop stop-color="#FFFFFF" offset="100%"/>
    </linearGradient>
    <linearGradient id="b" x1="32.73%" x2="32.703%" y1="-21.982%" y2="41.861%">
      <stop stop-color="#FFF500" stop-opacity=".411" offset="0%"/>
      <stop stop-color="#FFF500" stop-opacity=".412" offset="66.783%"/>
      <stop stop-color="#F8660D" offset="100%"/>
    </linearGradient>
    <filter id="c" width="200%" height="200%" x="-50%" y="-50%" filterUnits="objectBoundingBox">
      <feGaussianBlur stdDeviation="50" in="SourceGraphic"/>
    </filter>
    <linearGradient id="d" x1="50%" x2="50%" y1="31.548%" y2="114.532%">
      <stop stop-color="#FFFFFF" offset="0%"/>
      <stop stop-color="#FFFFFF" stop-opacity="0" offset="100%"/>
    </linearGradient>
    <linearGradient id="e" x1="50%" x2="50%" y1="1.531%" y2="93.44%">
      <stop stop-color="#9DDF8C" offset="0%"/>
      <stop stop-color="#537A59" offset="100%"/>
    </linearGradient>
    <linearGradient id="f" x1="50%" x2="50%" y1="12.422%" y2="57.281%">
      <stop stop-color="#B7B6AD" offset="0%"/>
      <stop stop-color="#D5CAAC" offset="100%"/>
    </linearGradient>
    <linearGradient id="g" x1="38.195%" x2="1.646%" y1="37.807%" y2="49.828%">
      <stop stop-color="#C3BEAC" stop-opacity="0" offset="0%"/>
      <stop stop-color="#626058" offset="100%"/>
    </linearGradient>
    <radialGradient id="h" cy="2.689%" r="92.763%" fx="50%" fy="2.689%">
      <stop stop-color="#FFFFFF" offset="0%"/>
      <stop stop-color="#F6F6F6" offset="100%"/>
    </radialGradient>
    <linearGradient id="i" x1="50%" x2="50%" y1="1.531%" y2="92.244%">
      <stop stop-color="#81BF72" offset="0%"/>
      <stop stop-color="#3B7056" offset="100%"/>
    </linearGradient>
    <linearGradient id="j" x1="50%" x2="50%" y1="1.531%" y2="93.44%">
      <stop stop-color="#437337" offset="0%"/>
      <stop stop-color="#537A59" offset="100%"/>
    </linearGradient>
    <linearGradient id="k" x1="50%" x2="50%" y1="1.531%" y2="93.44%">
      <stop stop-color="#9DDF8C" offset="0%"/>
      <stop stop-color="#2A7852" offset="100%"/>
    </linearGradient>
    <linearGradient id="l" x1="50%" x2="50%" y1="0%" y2="97.517%">
      <stop stop-color="#FFEA9E" offset="0%"/>
      <stop stop-color="#F7951C" offset="100%"/>
    </linearGradient>
    <linearGradient id="m" x1="50%" x2="50%" y1="0%" y2="100%">
      <stop stop-color="#FBDA61" offset="0%"/>
      <stop stop-color="#F76B1C" offset="100%"/>
    </linearGradient>
    <linearGradient id="n" x1="50%" x2="50%" y1="4.595%" y2="93.44%">
      <stop stop-color="#95CC87" offset="0%"/>
      <stop stop-color="#39682F" offset="100%"/>
    </linearGradient>
    <radialGradient id="p" cx="49.118%" cy="-44.247%" r="107.579%" fx="49.118%" fy="-44.247%">
      <stop stop-color="#EA9F54" offset="0%"/>
      <stop stop-color="#74AD61" offset="45.572%"/>
      <stop stop-color="#FFFFFF" offset="100%"/>
    </radialGradient>
    <path id="o" d="M36,256 C149,256 350,297 459,297 C568,297 621,263 717,263 C813,263 853,280 977,280 C1101,280 1176,219 1260,219 C1344,219 1381,250 1492,256 L1491.00859,402 L36,402"/>
    <linearGradient id="q" x1="50%" x2="50%" y1="0%" y2="97.575%">
      <stop stop-color="#646464" offset="0%"/>
      <stop stop-color="#CECECE" offset="100%"/>
    </linearGradient>
    <radialGradient id="r" cy="0%" r="100%" fx="50%" fy="0%">
      <stop stop-color="#747C84" offset="0%"/>
      <stop stop-color="#40464D" offset="100%"/>
    </radialGradient>
  </defs>
  <g fill="none" fill-rule="evenodd">
    <g transform="translate(-36)">
      <rect width="1455" height="402" x="36" y="1" fill="url(#a)"/>
      <circle cx="674" cy="251" r="222" fill="url(#b)" opacity=".304" filter="url(#c)"/>
      <g transform="translate(635 155)">
        <circle cx="35" cy="35" r="35" fill="#FEFCCC"/>
        <circle cx="35" cy="35" r="35" fill="#FFFFFA"/>
      </g>
      <g transform="translate(92 58)">
        <path fill="url(#d)" d="M871.407423 77.9475513C866.782287 77.9475513 862.445074 79.393289 858.901179 81.9233299 853.697136 74.1892459 844.808299 69.0556519 834.758585 69.0556519 831.867109 69.0556519 829.049146 69.4875354 826.375144 70.2869794 824.638421 53.2964985 810.251493 40 792.761743 40 775.991798 40 762.116392 52.1448092 759.439327 68.1918849 757.92314 67.9039626 756.40389 67.8273875 754.811128 67.8273875 747.080107 67.8273875 740.065829 70.7219259 734.717825 75.4940854 730.886007 69.3497003 724.092266 65.3004095 716.284669 65.3004095 709.417415 65.3004095 703.346542 68.4062952 699.370764 73.3224159 694.022759 67.6160402 686.432637 63.998633 678.049196 63.998633 663.662268 63.998633 651.737995 74.4802313 649.351915 88.1442902 641.68828 89.0080572 635.182461 93.924178 632 100.647471L892.872952 100.647471C892.872952 100.286036 892.946464 99.8510899 892.946464 99.4192064 892.949527 87.5623195 883.334758 77.9475513 871.407423 77.9475513zM412.407423 117.947551C407.782287 117.947551 403.445074 119.393289 399.901179 121.92333 394.697136 114.189246 385.808299 109.055652 375.758585 109.055652 372.867109 109.055652 370.049146 109.487535 367.375144 110.286979 365.638421 93.2964985 351.251493 80 333.761743 80 316.991798 80 303.116392 92.1448092 300.439327 108.191885 298.92314 107.903963 297.40389 107.827387 295.811128 107.827387 288.080107 107.827387 281.065829 110.721926 275.717825 115.494085 271.886007 109.3497 265.092266 105.30041 257.284669 105.30041 250.417415 105.30041 244.346542 108.406295 240.370764 113.322416 235.022759 107.61604 227.432637 103.998633 219.049196 103.998633 204.662268 103.998633 192.737995 114.480231 190.351915 128.14429 182.68828 129.008057 176.182461 133.924178 173 140.647471L433.872952 140.647471C433.872952 140.286036 433.946464 139.85109 433.946464 139.419206 433.949527 127.56232 424.334758 117.947551 412.407423 117.947551z"/>
        <path fill="url(#e)" d="M758.163384,205.899747 C755.494192,205.899747 752.991162,206.734091 750.94596,208.194192 C747.942677,203.730808 742.812879,200.768182 737.013131,200.768182 C735.344444,200.768182 733.718182,201.017424 732.175,201.478788 C731.172727,191.673485 722.869949,184 712.776515,184 C703.098485,184 695.090909,191.008838 693.54596,200.269697 C692.67096,200.103535 691.794192,200.059343 690.875,200.059343 C686.413384,200.059343 682.365404,201.729798 679.27904,204.483838 C677.067677,200.937879 673.14697,198.60101 668.641162,198.60101 C664.67803,198.60101 661.174495,200.393434 658.880051,203.230556 C655.793687,199.937374 651.413384,197.849747 646.575253,197.849747 C638.272475,197.849747 631.390909,203.898737 630.013889,211.784343 C625.591162,212.282828 621.836616,215.119949 620,219 L770.551263,219 C770.551263,218.791414 770.593687,218.540404 770.593687,218.291162 C770.595455,211.448485 765.046717,205.899747 758.163384,205.899747 Z"/>
        <path fill="url(#d)" d="M1080.90101 25.0282828C1077.85051 25.0282828 1074.9899 25.9818182 1072.65253 27.6505051 1069.2202 22.5494949 1063.35758 19.1636364 1056.72929 19.1636364 1054.82222 19.1636364 1052.96364 19.4484848 1051.2 19.9757576 1050.05455 8.76969697 1040.56566 0 1029.0303 0 1017.9697 0 1008.81818 8.01010101 1007.05253 18.5939394 1006.05253 18.4040404 1005.05051 18.3535354 1004 18.3535354 998.90101 18.3535354 994.274747 20.2626263 990.747475 23.410101 988.220202 19.3575758 983.739394 16.6868687 978.589899 16.6868687 974.060606 16.6868687 970.056566 18.7353535 967.434343 21.9777778 963.907071 18.2141414 958.90101 15.8282828 953.371717 15.8282828 943.882828 15.8282828 936.018182 22.7414141 934.444444 31.7535354 929.389899 32.3232323 925.09899 35.5656566 923 40L1095.05859 40C1095.05859 39.7616162 1095.10707 39.4747475 1095.10707 39.189899 1095.10909 31.369697 1088.76768 25.0282828 1080.90101 25.0282828zM1290.20206 113.232675C1288.75856 111.974973 1287.31507 110.714095 1285.86998 109.451629 1282.6368 107.320523 1279.08919 106.099346 1275.23033 105.788096 1273.31678 105.892905 1271.40323 105.996125 1269.4881 106.100934 1265.49267 106.874293 1261.95776 108.597281 1258.88815 111.269898 1258.06397 111.995617 1257.32237 112.799149 1256.62206 113.637617 1256.27905 113.521692 1255.93128 113.416884 1255.58509 113.308899 1254.28134 108.627453 1251.32605 104.328718 1247.229 101.697389 1243.55276 99.3344344 1240.68799 98.5642508 1236.37497 98.0068602 1234.15176 97.7178429 1231.89043 97.9131678 1229.70851 98.4816744 1229.06696 94.1337102 1227.19152 89.987423 1224.26165 86.6637236 1222.77686 85.3663215 1221.2889 84.0673315 1219.80252 82.7715175 1216.47406 80.5753033 1212.82164 79.3191895 1208.84686 79L1202.93471 79.3223655C1198.82177 80.1179572 1195.18364 81.8949374 1192.02351 84.6437782 1187.58026 88.5566283 1184.8076 94.1591183 1184.3582 100.058566 1184.1454 102.859811 1184.48841 105.662644 1185.28877 108.324144 1182.73525 107.728641 1180.14045 107.661945 1177.50436 108.141523 1169.12603 109.712063 1162.69778 116.90256 1162.04987 125.393635 1161.95618 126.611637 1161.99905 127.815347 1162.14039 129L1295.69657 129C1295.98241 123.270469 1294.00058 117.544115 1290.20206 113.232675zM855.202063 109.232675C853.758565 107.974973 852.315066 106.714095 850.869979 105.451629 847.636796 103.320523 844.089188 102.099346 840.23033 101.788096 838.316781 101.892905 836.403232 101.996125 834.488095 102.100934 830.492669 102.874293 826.957764 104.597281 823.888146 107.269898 823.06397 107.995617 822.322371 108.799149 821.622059 109.637617 821.27905 109.521692 820.931276 109.416884 820.585091 109.308899 819.281337 104.627453 816.326055 100.328718 812.228996 97.6973893 808.552759 95.3344344 805.687994 94.5642508 801.374966 94.0068602 799.151755 93.7178429 796.890433 93.9131678 794.708511 94.4816744 794.066956 90.1337102 792.191519 85.987423 789.261645 82.6637236 787.776858 81.3663215 786.288896 80.0673315 784.802521 78.7715175 781.474057 76.5753033 777.82164 75.3191895 773.846858 75L767.934706 75.3223655C763.821767 76.1179572 760.183642 77.8949374 757.023508 80.6437782 752.580263 84.5566283 749.807602 90.1591183 749.358196 96.0585657 749.145403 98.8598107 749.488413 101.662644 750.288768 104.324144 747.735253 103.728641 745.140449 103.661945 742.504356 104.141523 734.126029 105.712063 727.697776 112.90256 727.049869 121.393635 726.956176 122.611637 726.999052 123.815347 727.140385 125L860.696569 125C860.98241 119.270469 859.000577 113.544115 855.202063 109.232675zM310.202063 93.2326748C308.758565 91.974973 307.315066 90.7140952 305.869979 89.4516293 302.636796 87.3205234 299.089188 86.0993457 295.23033 85.7880963 293.316781 85.8929048 291.403232 85.9961253 289.488095 86.1009337 285.492669 86.8742933 281.957764 88.5972813 278.888146 91.2698977 278.06397 91.9956171 277.322371 92.7991488 276.622059 93.6376167 276.27905 93.5216922 275.931276 93.4168837 275.585091 93.3088992 274.281337 88.6274535 271.326055 84.3287175 267.228996 81.6973893 263.552759 79.3344344 260.687994 78.5642508 256.374966 78.0068602 254.151755 77.7178429 251.890433 77.9131678 249.708511 78.4816744 249.066956 74.1337102 247.191519 69.987423 244.261645 66.6637236 242.776858 65.3663215 241.288896 64.0673315 239.802521 62.7715175 236.474057 60.5753033 232.82164 59.3191895 228.846858 59L222.934706 59.3223655C218.821767 60.1179572 215.183642 61.8949374 212.023508 64.6437782 207.580263 68.5566283 204.807602 74.1591183 204.358196 80.0585657 204.145403 82.8598107 204.488413 85.6626437 205.288768 88.3241441 202.735253 87.7286413 200.140449 87.661945 197.504356 88.1415232 189.126029 89.7120625 182.697776 96.9025599 182.049869 105.393635 181.956176 106.611637 181.999052 107.815347 182.140385 109L315.696569 109C315.98241 103.270469 314.000577 97.5441148 310.202063 93.2326748z"/>
        <path fill="url(#d)" d="M198.170929,145.411313 C194.342445,145.411313 190.752291,146.608031 187.818811,148.702288 C183.511133,142.300353 176.153345,138.05099 167.834634,138.05099 C165.441198,138.05099 163.108612,138.408484 160.89519,139.070229 C159.457608,125.006256 147.548742,114 133.071496,114 C119.190074,114 107.704623,124.052939 105.488667,137.336002 C104.233634,137.097672 102.976066,137.034287 101.657648,137.034287 C95.2582487,137.034287 89.4521378,139.430258 85.0252953,143.380442 C81.8534854,138.29439 76.2299248,134.942566 69.7671403,134.942566 C64.0827296,134.942566 59.057528,137.513481 55.7665534,141.582829 C51.3397109,136.859343 45.0569412,133.865012 38.1174978,133.865012 C26.2086321,133.865012 16.3382437,142.541218 14.3631519,153.851725 C8.0195321,154.566713 2.63430093,158.636062 0,164.201307 L215.939149,164.201307 C215.939149,163.902128 215.999999,163.542098 215.999999,163.184604 C216.002535,153.369995 208.043853,145.411313 198.170929,145.411313 Z" transform="matrix(-1 0 0 1 216 0)"/>
      </g>
      <g transform="translate(0 88)">
        <polygon fill="url(#f)" points="1204.048 20 1441.096 247.372 967 247.372"/>
        <path fill="url(#d)" d="M1180.11959,59.9089119 C1179.19575,59.1039827 1178.27191,58.2970209 1177.34705,57.4890427 C1175.27782,56.125135 1173.00735,55.3435813 1170.53768,55.1443816 C1169.31301,55.2114591 1168.08834,55.2775202 1166.86265,55.3445976 C1164.30557,55.8395477 1162.04324,56.9422601 1160.07868,58.6527345 C1159.55121,59.1171949 1159.07658,59.6314552 1158.62839,60.1680747 C1158.40886,60.093883 1158.18628,60.0268056 1157.96473,59.9576955 C1157.13032,56.9615702 1155.23894,54.2103792 1152.61682,52.5263292 C1150.26403,51.014038 1148.43058,50.5211205 1145.67024,50.1643905 C1144.24739,49.9794194 1142.80014,50.1044274 1141.40371,50.4682716 C1140.99312,47.6855745 1139.79284,45.0319507 1137.91772,42.9047831 C1136.96746,42.0744458 1136.01516,41.2430922 1135.06388,40.4137712 C1132.93366,39.0081941 1130.59612,38.2042813 1128.05226,38 L1124.26848,38.2063139 C1121.6362,38.7154926 1119.3078,39.85276 1117.28531,41.612018 C1114.44164,44.1162421 1112.66713,47.7018357 1112.37951,51.4774821 C1112.24333,53.2702789 1112.46285,55.064092 1112.97508,56.7674522 C1111.34083,56.3863304 1109.68015,56.3436448 1107.99306,56.6505749 C1102.63093,57.65572 1098.51684,62.2576383 1098.10218,67.6919266 C1098.04222,68.4714476 1098.06966,69.2418218 1098.16011,70 L1183.63607,70 C1183.81901,66.3331004 1182.55064,62.6682335 1180.11959,59.9089119 Z"/>
        <path fill="url(#g)" d="M1204,20 C1204,22 1192,50 1192,50 L1216,66 L1204,86 L1252,181 C1252,181 1387,183 1386,183 C1385,183 1309,122 1309,122 C1309,122 1204,18 1204,20 Z"/>
      </g>
      <g transform="translate(28 130)">
        <g transform="translate(0 46)">
          <polygon fill="#4C9687" points="320.5 56 341 120.624 300 120.624"/>
          <polygon fill="#4C9687" points="338.5 77 359 141.624 318 141.624"/>
          <polygon fill="#4C9687" points="350.5 93 371 157.624 330 157.624"/>
          <polygon fill="#4C9687" points="851.119 12.679 879.119 100.946 823.119 100.946"/>
          <polygon fill="url(#h)" points="1076.5 43 1097 107.624 1056 107.624"/>
          <polygon fill="url(#h)" points="1096.5 21 1117 85.624 1076 85.624"/>
          <polygon fill="#86C687" points="1124.867 1 1153.734 92 1096 92"/>
          <polygon fill="#4C9687" points="1143.867 19.5 1161.631 75.5 1126.103 75.5"/>
          <polygon fill="#4C9687" points="1163.5 0 1184 64.624 1143 64.624"/>
          <polygon fill="#4C9687" points="1076.5 43 1097 107.624 1056 107.624"/>
          <polygon fill="#4C9687" points="1096.5 21 1117 85.624 1076 85.624"/>
          <polygon fill="#86C687" points="62.867 22 91.734 113 34 113"/>
          <polygon fill="#4B9586" points="130.5 56.5 143.338 96.972 117.662 96.972"/>
          <polygon fill="#4B9586" points="89.764 49 107.529 105 72 105"/>
          <polygon fill="#86C687" points="114 27 144 121.572 84 121.572"/>
          <polygon fill="#86C687" points="415.5 81 435 142.472 396 142.472"/>
          <polygon fill="#4C9687" points="491.838 88 504.677 128.472 479 128.472"/>
          <polygon fill="#4C9687" points="439.764 69 457.529 125 422 125"/>
          <polygon fill="#86C687" points="465 38 495 132.572 435 132.572"/>
          <polygon fill="#4B9586" points="20.5 29 41 93.624 0 93.624"/>
          <polygon fill="#4B9586" points="39.5 56 60 120.624 19 120.624"/>
          <polygon fill="url(#h)" points="1366.5 45 1387 109.624 1346 109.624"/>
          <polygon fill="#4C9687" points="1386.5 23 1407 87.624 1366 87.624"/>
          <polygon fill="#86C687" points="1414.867 3 1443.734 94 1386 94"/>
          <polygon fill="#4C9687" points="1439.764 41 1457.529 97 1422 97"/>
          <polygon fill="#86C687" points="1460.5 19 1481 83.624 1440 83.624"/>
          <polygon fill="#4C9687" points="831.5 32 852 96.624 811 96.624"/>
          <polygon fill="#4C9687" points="904.5 51 925 115.624 884 115.624"/>
        </g>
        <polygon fill="url(#i)" points="194.121 11.859 238.621 152.141 149.621 152.141"/>
        <polygon fill="#4C9687" points="794.591 107 806.181 143.538 783 143.538" opacity=".5"/>
        <polygon fill="url(#j)" points="251.121 48.409 285.121 155.591 217.121 155.591"/>
        <g transform="translate(345 98)">
          <path fill="#86C687" d="M13.9884615,58.2976923 C14.08,58.2992308 14.1669231,58.3115385 14.2592308,58.3115385 C14.3515385,58.3115385 14.4384615,58.2992308 14.53,58.2976923 L13.9884615,58.2976923 Z"/>
          <path fill="#86C687" d="M15.6569231,58.084497 L15.3846154,58.4615385 L13.0769231,59.2307692 L12.5656153,58.2081538 C12.6634327,58.220047 12.7615645,58.2309224 12.86,58.2407692 L12.86,45.0915385 L6.81538462,38.2692308 L8.90846154,36.4138462 L12.86,40.8738462 L12.86,30.4938462 L8.69538462,25.7953846 L10.7892308,23.94 L12.86,26.2769231 L12.86,12.6546154 L15.6584615,12.6546154 L15.6584615,17.8753846 L17.06,16.5638462 L18.9723077,18.6076923 L15.6576923,21.7107692 L15.6576923,34.1153846 L18.3746154,31.5723077 L20.2876923,33.6161538 L15.6569231,37.95 L15.6569231,48.7130769 L20.8169231,43.8861538 L22.73,45.93 L15.6569231,52.5476923 L15.6569231,58.084497 Z"/>
          <path fill="url(#k)" d="M14.2584615,0.133846154 C6.59692308,0.133846154 0.386923077,36.7776923 0.386923077,44.44 C0.386923077,51.6292308 5.85461538,57.54 12.86,58.2407692 L12.86,45.0915385 L6.81538462,38.2692308 L8.90846154,36.4138462 L12.86,40.8738462 L12.86,30.4938462 L8.69538462,25.7953846 L10.7892308,23.94 L12.86,26.2769231 L12.86,12.6546154 L15.6584615,12.6546154 L15.6584615,17.8753846 L17.06,16.5638462 L18.9723077,18.6076923 L15.6576923,21.7107692 L15.6576923,34.1153846 L18.3746154,31.5723077 L20.2876923,33.6161538 L15.6569231,37.95 L15.6569231,48.7130769 L20.8169231,43.8861538 L22.73,45.93 L15.6569231,52.5476923 L15.6569231,58.2407692 C22.6615385,57.54 28.1292308,51.6284615 28.1292308,44.44 C28.13,36.7776923 21.9207692,0.133846154 14.2584615,0.133846154 Z"/>
          <polygon fill="#86C687" points="15.658 66.432 15.658 58.298 12.86 58.298 12.86 66.432 9.492 66.432 9.492 69.231 19.025 69.231 19.025 66.432"/>
        </g>
        <g transform="translate(126 40)">
          <path fill="#86C687" d="M20.1514452,83.9822698 C20.2833133,83.9844861 20.4085326,84.0022163 20.5415089,84.0022163 C20.6744852,84.0022163 20.7997045,83.9844861 20.9315726,83.9822698 L20.1514452,83.9822698 Z"/>
          <path fill="url(#j)" d="M22.5549912,83.6751458 L22.1627112,84.2183027 L18.8383046,85.3264383 L18.1017268,83.8532827 C18.2426401,83.8704158 18.3840065,83.8860827 18.5258103,83.9002678 L18.5258103,64.9577985 L9.81808108,55.1297442 L12.8333179,52.4569212 L18.5258103,58.8818912 L18.5258103,43.9287099 L12.5263644,37.1602179 L15.5427094,34.487395 L18.5258103,37.8539108 L18.5258103,18.2299381 L22.5572075,18.2299381 L22.5572075,25.7508542 L24.5762305,23.8614831 L27.3310555,26.8057992 L22.5560994,31.2760181 L22.5560994,49.1458122 L26.4700342,45.482316 L29.2259673,48.4266322 L22.5549912,54.6698679 L22.5549912,70.1749007 L29.9883646,63.2213501 L32.7442977,66.1656663 L22.5549912,75.6989565 L22.5549912,83.6751458 Z"/>
          <path fill="url(#l)" d="M20.5404008,0.192815588 C9.50337058,0.192815588 0.557392188,52.9810694 0.557392188,64.0192077 C0.557392188,74.3758426 8.43401976,82.8907563 18.5258103,83.9002678 L18.5258103,64.9577985 L9.81808108,55.1297442 L12.8333179,52.4569212 L18.5258103,58.8818912 L18.5258103,43.9287099 L12.5263644,37.1602179 L15.5427094,34.487395 L18.5258103,37.8539108 L18.5258103,18.2299381 L22.5572075,18.2299381 L22.5572075,25.7508542 L24.5762305,23.8614831 L27.3310555,26.8057992 L22.5560994,31.2760181 L22.5560994,49.1458122 L26.4700342,45.482316 L29.2259673,48.4266322 L22.5549912,54.6698679 L22.5549912,70.1749007 L29.9883646,63.2213501 L32.7442977,66.1656663 L22.5549912,75.6989565 L22.5549912,83.9002678 C32.6456737,82.8907563 40.5223012,74.3747345 40.5223012,64.0192077 C40.5234094,52.9810694 31.5785391,0.192815588 20.5404008,0.192815588 Z"/>
          <polygon fill="url(#j)" points="22.556 95.701 22.556 83.982 18.526 83.982 18.526 95.701 13.673 95.701 13.673 99.732 27.408 99.732 27.408 95.701"/>
        </g>
        <g transform="translate(255 88)">
          <path fill="#86C687" d="M13.9884615,58.2976923 C14.08,58.2992308 14.1669231,58.3115385 14.2592308,58.3115385 C14.3515385,58.3115385 14.4384615,58.2992308 14.53,58.2976923 L13.9884615,58.2976923 Z"/>
          <path fill="url(#j)" d="M15.6569231,58.084497 L15.3846154,58.4615385 L13.0769231,59.2307692 L12.5656153,58.2081538 C12.6634327,58.220047 12.7615645,58.2309224 12.86,58.2407692 L12.86,45.0915385 L6.81538462,38.2692308 L8.90846154,36.4138462 L12.86,40.8738462 L12.86,30.4938462 L8.69538462,25.7953846 L10.7892308,23.94 L12.86,26.2769231 L12.86,12.6546154 L15.6584615,12.6546154 L15.6584615,17.8753846 L17.06,16.5638462 L18.9723077,18.6076923 L15.6576923,21.7107692 L15.6576923,34.1153846 L18.3746154,31.5723077 L20.2876923,33.6161538 L15.6569231,37.95 L15.6569231,48.7130769 L20.8169231,43.8861538 L22.73,45.93 L15.6569231,52.5476923 L15.6569231,58.084497 Z"/>
          <path fill="url(#k)" d="M14.2584615,0.133846154 C6.59692308,0.133846154 0.386923077,36.7776923 0.386923077,44.44 C0.386923077,51.6292308 5.85461538,57.54 12.86,58.2407692 L12.86,45.0915385 L6.81538462,38.2692308 L8.90846154,36.4138462 L12.86,40.8738462 L12.86,30.4938462 L8.69538462,25.7953846 L10.7892308,23.94 L12.86,26.2769231 L12.86,12.6546154 L15.6584615,12.6546154 L15.6584615,17.8753846 L17.06,16.5638462 L18.9723077,18.6076923 L15.6576923,21.7107692 L15.6576923,34.1153846 L18.3746154,31.5723077 L20.2876923,33.6161538 L15.6569231,37.95 L15.6569231,48.7130769 L20.8169231,43.8861538 L22.73,45.93 L15.6569231,52.5476923 L15.6569231,58.2407692 C22.6615385,57.54 28.1292308,51.6284615 28.1292308,44.44 C28.13,36.7776923 21.9207692,0.133846154 14.2584615,0.133846154 Z"/>
          <polygon fill="url(#j)" points="15.658 66.432 15.658 58.298 12.86 58.298 12.86 66.432 9.492 66.432 9.492 69.231 19.025 69.231 19.025 66.432"/>
        </g>
        <g transform="translate(906 88)">
          <path fill="#86C687" d="M13.9884615,58.2976923 C14.08,58.2992308 14.1669231,58.3115385 14.2592308,58.3115385 C14.3515385,58.3115385 14.4384615,58.2992308 14.53,58.2976923 L13.9884615,58.2976923 Z"/>
          <path fill="#86C687" d="M15.6569231,58.084497 L15.3846154,58.4615385 L13.0769231,59.2307692 L12.5656153,58.2081538 C12.6634327,58.220047 12.7615645,58.2309224 12.86,58.2407692 L12.86,45.0915385 L6.81538462,38.2692308 L8.90846154,36.4138462 L12.86,40.8738462 L12.86,30.4938462 L8.69538462,25.7953846 L10.7892308,23.94 L12.86,26.2769231 L12.86,12.6546154 L15.6584615,12.6546154 L15.6584615,17.8753846 L17.06,16.5638462 L18.9723077,18.6076923 L15.6576923,21.7107692 L15.6576923,34.1153846 L18.3746154,31.5723077 L20.2876923,33.6161538 L15.6569231,37.95 L15.6569231,48.7130769 L20.8169231,43.8861538 L22.73,45.93 L15.6569231,52.5476923 L15.6569231,58.084497 Z"/>
          <path fill="url(#k)" d="M14.2584615,0.133846154 C6.59692308,0.133846154 0.386923077,36.7776923 0.386923077,44.44 C0.386923077,51.6292308 5.85461538,57.54 12.86,58.2407692 L12.86,45.0915385 L6.81538462,38.2692308 L8.90846154,36.4138462 L12.86,40.8738462 L12.86,30.4938462 L8.69538462,25.7953846 L10.7892308,23.94 L12.86,26.2769231 L12.86,12.6546154 L15.6584615,12.6546154 L15.6584615,17.8753846 L17.06,16.5638462 L18.9723077,18.6076923 L15.6576923,21.7107692 L15.6576923,34.1153846 L18.3746154,31.5723077 L20.2876923,33.6161538 L15.6569231,37.95 L15.6569231,48.7130769 L20.8169231,43.8861538 L22.73,45.93 L15.6569231,52.5476923 L15.6569231,58.2407692 C22.6615385,57.54 28.1292308,51.6284615 28.1292308,44.44 C28.13,36.7776923 21.9207692,0.133846154 14.2584615,0.133846154 Z"/>
          <polygon fill="#86C687" points="15.658 66.432 15.658 58.298 12.86 58.298 12.86 66.432 9.492 66.432 9.492 69.231 19.025 69.231 19.025 66.432"/>
        </g>
        <g transform="translate(975 79)">
          <path fill="#86C687" d="M14.1060116,58.7875889 C14.1983193,58.7891403 14.2859729,58.8015514 14.3790562,58.8015514 C14.4721396,58.8015514 14.5597931,58.7891403 14.6521008,58.7875889 L14.1060116,58.7875889 Z"/>
          <path fill="url(#j)" d="M15.7884939,58.5726021 L15.5138979,58.9528119 L13.1868132,59.7285068 L12.6712087,58.6972979 C12.7698481,58.7092911 12.8688046,58.7202579 12.9680672,58.7301875 L12.9680672,45.470459 L6.87265676,38.5908209 L8.98332256,36.7198449 L12.9680672,41.2173239 L12.9680672,30.750097 L8.76845507,26.0121526 L10.8798966,24.1411765 L12.9680672,26.4977376 L12.9680672,12.7609567 L15.7900452,12.7609567 L15.7900452,18.0255979 L17.2033613,16.7030381 L19.1317388,18.7640595 L15.7892696,21.8932127 L15.7892696,34.4020685 L18.5290239,31.8376212 L20.4581771,33.8986425 L15.7884939,38.2689076 L15.7884939,49.1224305 L20.9918552,44.2549451 L22.9210084,46.3159664 L15.7884939,52.9892696 L15.7884939,58.5726021 Z"/>
          <path fill="url(#m)" d="M14.3782805,0.134970911 C6.65235941,0.134970911 0.390174531,37.0867485 0.390174531,44.8134454 C0.390174531,52.0630899 5.90381383,58.0235294 12.9680672,58.7301875 L12.9680672,45.470459 L6.87265676,38.5908209 L8.98332256,36.7198449 L12.9680672,41.2173239 L12.9680672,30.750097 L8.76845507,26.0121526 L10.8798966,24.1411765 L12.9680672,26.4977376 L12.9680672,12.7609567 L15.7900452,12.7609567 L15.7900452,18.0255979 L17.2033613,16.7030381 L19.1317388,18.7640595 L15.7892696,21.8932127 L15.7892696,34.4020685 L18.5290239,31.8376212 L20.4581771,33.8986425 L15.7884939,38.2689076 L15.7884939,49.1224305 L20.9918552,44.2549451 L22.9210084,46.3159664 L15.7884939,52.9892696 L15.7884939,58.7301875 C22.8519716,58.0235294 28.3656109,52.0623142 28.3656109,44.8134454 C28.3663866,37.0867485 22.1049774,0.134970911 14.3782805,0.134970911 Z"/>
          <polygon fill="url(#j)" points="15.789 66.991 15.789 58.788 12.968 58.788 12.968 66.991 9.571 66.991 9.571 69.813 19.185 69.813 19.185 66.991"/>
        </g>
        <g transform="translate(816 78)">
          <path fill="#86C687" d="M13.9884615,58.2976923 C14.08,58.2992308 14.1669231,58.3115385 14.2592308,58.3115385 C14.3515385,58.3115385 14.4384615,58.2992308 14.53,58.2976923 L13.9884615,58.2976923 Z"/>
          <path fill="url(#j)" d="M15.6569231,58.084497 L15.3846154,58.4615385 L13.0769231,59.2307692 L12.5656153,58.2081538 C12.6634327,58.220047 12.7615645,58.2309224 12.86,58.2407692 L12.86,45.0915385 L6.81538462,38.2692308 L8.90846154,36.4138462 L12.86,40.8738462 L12.86,30.4938462 L8.69538462,25.7953846 L10.7892308,23.94 L12.86,26.2769231 L12.86,12.6546154 L15.6584615,12.6546154 L15.6584615,17.8753846 L17.06,16.5638462 L18.9723077,18.6076923 L15.6576923,21.7107692 L15.6576923,34.1153846 L18.3746154,31.5723077 L20.2876923,33.6161538 L15.6569231,37.95 L15.6569231,48.7130769 L20.8169231,43.8861538 L22.73,45.93 L15.6569231,52.5476923 L15.6569231,58.084497 Z"/>
          <path fill="url(#k)" d="M14.2584615,0.133846154 C6.59692308,0.133846154 0.386923077,36.7776923 0.386923077,44.44 C0.386923077,51.6292308 5.85461538,57.54 12.86,58.2407692 L12.86,45.0915385 L6.81538462,38.2692308 L8.90846154,36.4138462 L12.86,40.8738462 L12.86,30.4938462 L8.69538462,25.7953846 L10.7892308,23.94 L12.86,26.2769231 L12.86,12.6546154 L15.6584615,12.6546154 L15.6584615,17.8753846 L17.06,16.5638462 L18.9723077,18.6076923 L15.6576923,21.7107692 L15.6576923,34.1153846 L18.3746154,31.5723077 L20.2876923,33.6161538 L15.6569231,37.95 L15.6569231,48.7130769 L20.8169231,43.8861538 L22.73,45.93 L15.6569231,52.5476923 L15.6569231,58.2407692 C22.6615385,57.54 28.1292308,51.6284615 28.1292308,44.44 C28.13,36.7776923 21.9207692,0.133846154 14.2584615,0.133846154 Z"/>
          <polygon fill="url(#j)" points="15.658 66.432 15.658 58.298 12.86 58.298 12.86 66.432 9.492 66.432 9.492 69.231 19.025 69.231 19.025 66.432"/>
        </g>
        <path fill="url(#e)" d="M251.163384,138.899747 C248.494192,138.899747 245.991162,139.734091 243.94596,141.194192 C240.942677,136.730808 235.812879,133.768182 230.013131,133.768182 C228.344444,133.768182 226.718182,134.017424 225.175,134.478788 C224.172727,124.673485 215.869949,117 205.776515,117 C196.098485,117 188.090909,124.008838 186.54596,133.269697 C185.67096,133.103535 184.794192,133.059343 183.875,133.059343 C179.413384,133.059343 175.365404,134.729798 172.27904,137.483838 C170.067677,133.937879 166.14697,131.60101 161.641162,131.60101 C157.67803,131.60101 154.174495,133.393434 151.880051,136.230556 C148.793687,132.937374 144.413384,130.849747 139.575253,130.849747 C131.272475,130.849747 124.390909,136.898737 123.013889,144.784343 C118.591162,145.282828 114.836616,148.119949 113,152 L263.551263,152 C263.551263,151.791414 263.593687,151.540404 263.593687,151.291162 C263.595455,144.448485 258.046717,138.899747 251.163384,138.899747 Z"/>
        <polygon fill="url(#n)" points="291.121 94.571 311.06 157.429 271.181 157.429"/>
        <polygon fill="url(#j)" points="812 81 832 144.048 792 144.048"/>
        <polygon fill="url(#k)" points="868.44 67 896.879 156.653 840 156.653"/>
        <polygon fill="url(#n)" points="891.121 104.571 911.06 167.429 871.181 167.429"/>
        <polygon fill="url(#e)" points="954.121 27.376 995.121 156.624 913.121 156.624"/>
        <polygon fill="url(#j)" points="1012.56 67.023 1039 150.372 986.121 150.372"/>
        <polygon fill="url(#n)" points="1054.94 82 1074.879 144.858 1035 144.858"/>
        <polygon fill="url(#e)" points="1294.121 .681 1331.121 117.319 1257.121 117.319"/>
        <polygon fill="url(#j)" points="1336.5 31 1364.94 120.653 1308.06 120.653"/>
        <polygon fill="url(#n)" points="1364.94 81 1379.169 125.858 1350.71 125.858"/>
      </g>
      <use fill="url(#p)" xlink:href="#o"/>
      <g transform="translate(368 258)">
        <path fill="url(#q)" d="M67.1954739,50.8719699 C66.615658,50.9857129 65.2602839,51.3104403 64.8243673,51.4371487 C64.4430386,51.5355688 63.5045698,51.7494999 62.4633094,51.9952555 C61.407379,52.220384 57.7284346,53.0672683 56.2037646,53.6442339 C55.6424624,53.8121963 51.2905396,55.059833 44.6800823,56.2267298 C43.7505889,56.3817267 43.0731754,56.6333757 42.8298936,56.7300278 C42.6267753,56.8113569 42.5278905,56.8508428 42.4149368,56.8915074 C41.3066812,57.2904919 39.8706216,57.6140405 39.2097397,57.6140405 C39.1017917,57.6140405 39.0345422,57.602843 38.9775524,57.5875201 C38.1058482,57.8326863 37.216877,58.0041848 36.7347091,58.0041848 C36.263336,58.0041848 36.3210916,57.8391691 36.7841012,57.6016643 C37.5795755,57.092473 37.5332583,56.9480842 37.460399,56.9121344 C37.4568796,56.8797206 32.6927287,56.9427802 28.3347869,57.392448 C27.9660162,57.4384167 27.6218006,57.4755452 27.2878447,57.5085483 C25.2901222,57.7000844 23.9887457,57.6564731 23.4060638,57.3346925 C22.7916932,56.9958209 21.1622131,56.9999463 19.0410131,57.1655514 C16.1302244,57.3930373 13.1759007,57.6323101 10.519091,57.7584293 C4.3192145,58.0525108 0.610032065,57.5686612 1.54565236,55.7464162 C2.12193088,54.6213627 -0.0197451633,54.2394692 1.21589841,52.9759203 C2.26647121,51.9050862 8.00312978,49.7374869 11.3089994,48.3301386 C13.2445845,47.50506 15.1714494,46.6788028 16.9457294,45.8690471 C19.5927405,44.6608963 23.1293428,43.3401813 23.9879163,42.351855 C25.2406102,41.7890336 28.2683282,40.872607 28.4901681,40.8048327 C35.1581542,38.7592272 36.9584007,38.4362679 40.6821506,38.6242679 C41.0488024,38.6425375 41.5311969,38.6390015 41.5997651,38.7356535 C41.6618168,38.8216974 41.4134535,39.0350392 40.979435,39.188268 C39.5227388,39.7027635 38.4520319,39.7717165 37.4330954,39.8500989 C36.1514379,39.9479297 35.5630339,40.0958545 34.9628487,40.5148765 C34.5405908,40.8089581 34.2876123,41.0818234 34.2111725,41.3075413 C33.8861282,42.2493095 32.6865372,43.3496107 30.3702986,44.6679684 C29.8072077,44.9885704 29.6316219,45.2266645 29.734589,45.3916802 C28.8808328,46.1925958 27.5644957,47.0995928 25.5249571,48.0307529 C26.5359432,47.5899252 28.4953659,46.6923576 30.1003774,45.5855737 C31.0618944,45.1306018 33.816634,44.5058994 34.7500597,44.2583759 C40.1725633,42.9936483 45.4371176,41.7542624 50.3222927,40.4394408 C51.0293232,40.2496727 51.9324608,40.0817103 52.6040498,39.9832902 C56.0204576,39.4835283 58.4535607,39.3856976 60.1185348,39.5825377 C60.3641267,39.6120048 60.3341529,39.78645 59.9996047,39.9284814 C59.6334024,40.0840676 58.6754058,40.3469141 58.1391407,40.4423875 C57.1693706,40.6144753 56.2718369,40.7199675 55.4336573,40.8101368 C52.8759237,41.0871274 53.5918005,40.846676 50.6115864,41.9575853 C50.4936084,42.001786 50.4033304,42.0442186 50.2821917,42.0878299 C48.3990796,42.7679304 46.1113699,43.8782504 43.6553803,44.6885954 C46.1441082,44.315542 49.6014975,43.9124322 52.4735696,44.0020122 C49.6913706,45.0675422 48.0146469,45.8460628 47.034493,46.3422886 C47.9454924,45.9456615 48.9653938,45.515442 50.1086563,45.0693102 C50.3429911,44.9750155 50.5964192,44.8760061 50.8669791,44.7716926 C50.9415197,44.7439935 51.0096256,44.7168838 51.0801304,44.6897741 C51.4509855,44.5489214 51.8612265,44.3986392 52.3048561,44.2389276 C52.504247,44.1658492 52.6924056,44.0933601 52.8953948,44.0202818 C55.579801,43.0832282 59.4544197,41.8532718 65.0686495,40.3044815 C68.7927383,39.2772587 72.3115888,38.6201425 75.0080396,38.424481 C77.026042,38.2783242 78.4379319,38.3879418 80.0335385,38.4132835 C80.5974622,38.422713 80.8200759,38.5299732 79.7380124,38.9195282 C78.6821412,39.2996536 77.7879347,39.4717415 76.9618282,39.529497 C76.0750863,39.5913779 75.1905324,39.650312 74.4333409,39.6620989 C73.2055225,39.6809578 71.6576238,39.9903623 70.2139448,40.5325568 C66.3842863,41.9717295 62.1505228,43.4592283 59.0884415,44.8306268 C58.7941543,44.96205 58.5317163,45.0893478 58.2571708,45.2184137 C60.44079,44.5842819 62.1593595,44.2194793 62.1593595,44.2194793 C66.8552703,43.1627894 71.5379904,42.1497108 75.7038392,41.5969081 C77.148628,41.405372 78.1887047,41.1531337 79.2708283,40.6940364 C79.835027,40.4559423 80.3271785,40.2066507 81.0291817,39.9768074 C82.0236429,39.650312 83.3093628,39.2271646 84.2287571,39.0550768 C84.8439071,38.9389764 85.5291766,39.0886693 85.3497629,39.2866881 C84.0786147,40.667516 81.2428182,42.0265383 74.9790237,43.6295481 C71.5573412,44.5047207 68.0292442,45.2873667 64.5605831,46.0658873 C62.4475731,46.5403074 60.7345375,47.0058875 59.4248253,47.6099629 C58.5811227,47.9983391 57.7101419,48.3943769 56.8423218,48.7910039 C55.542885,49.3844711 55.0084097,49.8199948 55.0084097,49.8199948 C55.0084097,49.8199948 54.7452474,50.0209603 54.2379272,50.5442959 C55.2023585,50.2808601 57.128435,49.7787408 57.6749371,49.8229415 C57.5108616,49.8565339 56.1455078,50.2496249 55.3302769,50.5431172 C55.4995089,50.5413492 55.6799732,50.5389918 55.8668722,50.5360451 C56.8508343,50.2673052 59.6079982,49.5424147 60.430402,49.6172612 C60.2268432,49.6555684 58.5376512,50.135882 57.5966633,50.4888977 C59.5256216,50.4158193 61.9407777,50.254929 64.3984685,49.9107534 C64.713687,49.8706781 66.980711,49.4198316 67.6387248,49.4333865 C68.5138786,49.3838818 69.3522661,49.2530479 69.117128,49.4534241 C69.0725887,49.4746404 69.8242118,49.3314304 69.775205,49.441048 C69.7422125,49.556559 69.6708129,49.7722581 69.2032825,50.0303898 C69.3080856,50.0233177 69.7070676,50.1983522 69.2297251,50.3663146 C68.7114385,50.5118821 68.8960363,50.5136501 67.1954739,50.8719699 Z" opacity=".3"/>
        <path fill="#40464D" d="M100.977641,14.5154123 C100.713768,14.2839237 100.260387,13.6230419 100.176427,13.365166 C100.068479,13.1648624 99.7242447,12.729472 99.3656173,12.2293128 C98.9350246,11.7711334 97.6084632,10.0475631 97.6864257,8.87332838 C97.5916713,8.53149294 96.705298,5.9923153 93.3361199,3.61745855 L93.3409176,3.61266086 C92.8371601,3.30201041 92.8587497,2.78985696 92.8839376,2.59315166 C92.8887353,2.57156205 92.893533,2.54877302 92.8971313,2.52598399 C92.8971313,2.51998688 92.9007295,2.50919207 92.9007295,2.50919207 L92.8959318,2.50679323 C92.9067266,2.42763134 92.9175214,2.34727002 92.9175214,2.26450986 C92.9175214,1.45250077 92.3801801,0.79401776 91.7192983,0.79401776 C91.6113502,0.79401776 91.5129976,0.816806789 91.4134455,0.847991777 C91.2227373,0.349031976 90.8101359,0 90.3279681,0 C89.856595,0 89.4559878,0.335838327 89.2592825,0.819205634 C88.6403805,1.85550676 88.1929958,2.1493653 88.020279,2.22253007 C88.0058859,2.22732776 87.9878946,2.23092603 87.9735015,2.23572372 C87.926724,2.28849832 83.3377332,2.1601601 80.2288298,1.24500066 C79.9877458,1.15144569 79.7466619,1.07588207 79.5043785,1.0087144 C79.4851878,1.00271729 79.4647976,0.996720179 79.4456068,0.988324221 L79.4456068,0.994321334 C78.0386841,0.61890206 76.6161689,0.707659333 75.1396797,1.36254407 C73.5840286,2.05221206 71.9660075,2.04381611 70.3048072,1.70677836 C68.0259043,1.24380123 65.7362065,0.756835659 63.4297169,0.500159223 C58.0467083,-0.098352653 52.9935409,0.8863733 48.8675271,4.59498797 C46.3187541,6.88468571 43.1162958,7.66191155 40.8421905,10.2334736 C38.9183167,12.4128245 38.6340535,16.8243008 38.0307439,19.6885219 C37.6745154,21.3677136 37.3062927,23.0493041 36.8313213,24.6973107 C36.1224626,27.156127 35.9905261,29.8440331 34.1038344,31.8554648 C33.7931839,33.0009134 34.2753518,34.8660155 34.3089356,35.0039491 C35.294861,39.1671449 36.1980262,39.8244285 40.4439822,39.4418127 C40.8613813,39.4046306 41.3339538,39.4118271 41.6709915,39.2151218 C41.9720466,39.0400061 42.3162809,38.6058152 42.3078849,38.2939653 C42.2802982,37.2468694 41.4011214,37.1065369 40.5999072,36.9470137 C39.5899933,36.7479096 39.4124788,36.4468545 39.9762074,35.594065 C40.3708174,34.9955531 40.8757743,34.4402205 41.4263093,33.9808416 C43.7172065,32.0641643 45.5739127,29.8248423 46.9196648,27.141734 C47.2471072,26.4892481 47.7328733,26.0046813 48.2942031,25.668843 C49.6651431,24.0388277 50.868164,22.1929163 51.4151007,20.2978286 C51.2016035,21.1949967 50.6678604,23.0217173 49.1985678,25.274233 C48.8963133,26.2001872 49.9158225,27.4715752 50.1617041,27.9753327 C52.0711849,30.5492936 53.8931078,33.0716793 55.1261142,35.7475911 C55.3060276,36.1338052 55.7426174,36.4756406 56.1408257,36.6759442 C58.1690494,37.6930546 60.3304089,37.8921587 62.5421442,37.4915516 C62.8695865,37.4315804 63.3241677,37.0765513 63.3841388,36.7874905 C63.4501071,36.4708429 63.2222168,35.9359005 62.9511473,35.741594 C62.459384,35.3913626 61.854875,35.1766659 61.2671579,34.9931543 C59.4788188,34.4294257 59.5267957,34.9187901 59.6323449,32.6578785 C59.6371426,32.5679218 59.6647293,32.4815634 59.6647293,32.3928061 C59.6707265,31.0086724 60.4671431,28.7489602 60.2620418,27.0997542 C61.7145426,27.8589887 64.0522172,28.6793937 67.1731148,28.4970815 C67.3506293,26.3285254 67.8363955,24.7440882 68.2346038,23.7341744 C68.2597917,23.7281773 68.286179,23.7221801 68.3113668,23.716183 C68.0438956,24.5413858 67.8687799,25.4169643 67.7728261,26.3249272 C67.7452394,26.5168348 67.7236498,26.7183378 67.704459,26.9306356 C67.7020602,26.9870084 67.6948636,27.0421819 67.6900659,27.0973553 C67.6696758,27.3840173 67.6624792,27.6898701 67.6624792,28.0149136 C67.658881,28.163642 67.6456873,28.311171 67.6456873,28.4598994 C67.6528838,28.4598994 67.6600804,28.4587 67.6648781,28.4575006 C67.727248,30.3669813 68.1854275,32.8701763 69.4975958,36.0222589 C70.3683766,38.1128525 72.0619613,39.4502087 74.2149249,39.848417 C75.8269488,40.1458738 77.5433226,39.9227812 79.2093206,39.871206 C79.7994365,39.8520152 80.3199859,39.6337203 80.3199859,38.840902 C80.3199859,38.0672744 79.9037863,37.717043 79.2381067,37.5994996 C78.5232508,37.4735602 77.8023979,37.353618 77.0779466,37.3296295 C75.9025125,37.291248 75.2140439,36.6615511 75.2764139,35.5580823 C75.444333,32.6290923 75.3423821,29.6017497 76.0896224,26.8106933 C76.1603883,26.5432221 76.2515444,26.2841468 76.335504,26.0214733 C76.7577008,27.312052 77.4629613,28.0544946 77.4629613,28.0544946 L77.4629613,28.0532951 C79.2237136,30.2050593 81.0924141,32.2668667 83.7227478,33.3919251 C84.6355084,33.7817375 84.974945,34.2950903 84.781838,35.2294405 C84.6846847,35.7140073 84.4843812,36.221363 84.5479506,36.6891378 C84.6355084,37.353618 84.7458553,38.2148034 85.1872428,38.5650348 C85.4799019,38.801321 86.5809719,38.4966677 86.9515934,38.0936617 C89.515959,35.2834146 90.4551068,32.517546 88.6439787,29.2551166 C87.6532557,27.473974 86.2991075,25.8811408 84.9929363,24.2967036 C84.1977192,23.3311684 83.7779212,22.3836245 84.146144,21.1542164 C84.3812308,20.3637969 84.6103205,19.5577849 84.8442079,18.7505735 L84.8466068,18.7469752 C85.1932399,17.5427549 85.8685148,16.6563816 85.8685148,16.6563816 C85.8685148,16.6563816 86.1635728,16.2473785 87.1099172,15.1822912 L87.1123161,15.1822912 C87.3426052,15.7184331 87.8739494,16.7403412 88.5432272,16.6503845 C88.4724613,16.5820174 88.1989929,15.7820025 88.1989929,15.1846901 C88.3633138,15.1882884 88.5372301,15.193086 88.7159441,15.1990832 C88.9534298,15.7460199 89.6970718,17.2213097 90.7273758,17.068983 C90.6302225,16.9910205 90.2751935,16.0134911 90.3147744,15.295037 C92.0407435,15.4437654 94.008996,15.7712077 95.5106731,16.4716705 C95.7145749,16.5532313 96.7292865,17.4707896 97.4249516,17.4432028 C98.1625965,17.5439543 98.6375678,17.8102262 98.9590131,17.4024225 C98.9734061,17.3592433 99.3272358,17.6507029 99.5827128,17.4276103 C99.8705742,17.1925235 100.39832,16.7535348 100.6478,16.2281877 C100.732959,16.2425808 101.618133,15.8863523 101.607338,15.5445169 C101.493393,15.2482595 101.682902,15.2446612 100.977641,14.5154123 Z"/>
        <path fill="url(#r)" d="M100.977641,14.5154123 C100.713768,14.2839237 100.260387,13.6230419 100.176427,13.365166 C100.068479,13.1648624 99.7242447,12.729472 99.3656173,12.2293128 C98.9350246,11.7711334 97.6084632,10.0475631 97.6864257,8.87332838 C97.5916713,8.53149294 96.705298,5.9923153 93.3361199,3.61745855 L93.3409176,3.61266086 C92.8371601,3.30201041 92.8587497,2.78985696 92.8839376,2.59315166 C92.8887353,2.57156205 92.893533,2.54877302 92.8971313,2.52598399 C92.8971313,2.51998688 92.9007295,2.50919207 92.9007295,2.50919207 L92.8959318,2.50679323 C92.9067266,2.42763134 92.9175214,2.34727002 92.9175214,2.26450986 C92.9175214,1.45250077 92.3801801,0.79401776 91.7192983,0.79401776 C91.6113502,0.79401776 91.5129976,0.816806789 91.4134455,0.847991777 C91.2227373,0.349031976 90.8101359,0 90.3279681,0 C89.856595,0 89.4559878,0.335838327 89.2592825,0.819205634 C88.6403805,1.85550676 88.1929958,2.1493653 88.020279,2.22253007 C88.0058859,2.22732776 87.9878946,2.23092603 87.9735015,2.23572372 C87.926724,2.28849832 83.3377332,2.1601601 80.2288298,1.24500066 C79.9877458,1.15144569 79.7466619,1.07588207 79.5043785,1.0087144 C79.4851878,1.00271729 79.4647976,0.996720179 79.4456068,0.988324221 L79.4456068,0.994321334 C78.0386841,0.61890206 76.6161689,0.707659333 75.1396797,1.36254407 C73.5840286,2.05221206 71.9660075,2.04381611 70.3048072,1.70677836 C68.0259043,1.24380123 65.7362065,0.756835659 63.4297169,0.500159223 C58.0467083,-0.098352653 52.9935409,0.8863733 48.8675271,4.59498797 C46.3187541,6.88468571 43.1162958,7.66191155 40.8421905,10.2334736 C38.9183167,12.4128245 38.6340535,16.8243008 38.0307439,19.6885219 C37.6745154,21.3677136 37.3062927,23.0493041 36.8313213,24.6973107 C36.1224626,27.156127 35.9905261,29.8440331 34.1038344,31.8554648 C33.7931839,33.0009134 34.2753518,34.8660155 34.3089356,35.0039491 C35.294861,39.1671449 36.1980262,39.8244285 40.4439822,39.4418127 C40.8613813,39.4046306 41.3339538,39.4118271 41.6709915,39.2151218 C41.9720466,39.0400061 42.3162809,38.6058152 42.3078849,38.2939653 C42.2802982,37.2468694 41.4011214,37.1065369 40.5999072,36.9470137 C39.5899933,36.7479096 39.4124788,36.4468545 39.9762074,35.594065 C40.3708174,34.9955531 40.8757743,34.4402205 41.4263093,33.9808416 C43.7172065,32.0641643 45.5739127,29.8248423 46.9196648,27.141734 C47.2471072,26.4892481 47.7328733,26.0046813 48.2942031,25.668843 C49.6651431,24.0388277 50.868164,22.1929163 51.4151007,20.2978286 C51.2016035,21.1949967 50.6678604,23.0217173 49.1985678,25.274233 C48.8963133,26.2001872 49.9158225,27.4715752 50.1617041,27.9753327 C52.0711849,30.5492936 53.8931078,33.0716793 55.1261142,35.7475911 C55.3060276,36.1338052 55.7426174,36.4756406 56.1408257,36.6759442 C58.1690494,37.6930546 60.3304089,37.8921587 62.5421442,37.4915516 C62.8695865,37.4315804 63.3241677,37.0765513 63.3841388,36.7874905 C63.4501071,36.4708429 63.2222168,35.9359005 62.9511473,35.741594 C62.459384,35.3913626 61.854875,35.1766659 61.2671579,34.9931543 C59.4788188,34.4294257 59.5267957,34.9187901 59.6323449,32.6578785 C59.6371426,32.5679218 59.6647293,32.4815634 59.6647293,32.3928061 C59.6707265,31.0086724 60.4671431,28.7489602 60.2620418,27.0997542 C61.7145426,27.8589887 64.0522172,28.6793937 67.1731148,28.4970815 C67.3506293,26.3285254 67.8363955,24.7440882 68.2346038,23.7341744 C68.2597917,23.7281773 68.286179,23.7221801 68.3113668,23.716183 C68.0438956,24.5413858 67.8687799,25.4169643 67.7728261,26.3249272 C67.7452394,26.5168348 67.7236498,26.7183378 67.704459,26.9306356 C67.7020602,26.9870084 67.6948636,27.0421819 67.6900659,27.0973553 C67.6696758,27.3840173 67.6624792,27.6898701 67.6624792,28.0149136 C67.658881,28.163642 67.6456873,28.311171 67.6456873,28.4598994 C67.6528838,28.4598994 67.6600804,28.4587 67.6648781,28.4575006 C67.727248,30.3669813 68.1854275,32.8701763 69.4975958,36.0222589 C70.3683766,38.1128525 72.0619613,39.4502087 74.2149249,39.848417 C75.8269488,40.1458738 77.5433226,39.9227812 79.2093206,39.871206 C79.7994365,39.8520152 80.3199859,39.6337203 80.3199859,38.840902 C80.3199859,38.0672744 79.9037863,37.717043 79.2381067,37.5994996 C78.5232508,37.4735602 77.8023979,37.353618 77.0779466,37.3296295 C75.9025125,37.291248 75.2140439,36.6615511 75.2764139,35.5580823 C75.444333,32.6290923 75.3423821,29.6017497 76.0896224,26.8106933 C76.1603883,26.5432221 76.2515444,26.2841468 76.335504,26.0214733 C76.7577008,27.312052 77.4629613,28.0544946 77.4629613,28.0544946 L77.4629613,28.0532951 C79.2237136,30.2050593 81.0924141,32.2668667 83.7227478,33.3919251 C84.6355084,33.7817375 84.974945,34.2950903 84.781838,35.2294405 C84.6846847,35.7140073 84.4843812,36.221363 84.5479506,36.6891378 C84.6355084,37.353618 84.7458553,38.2148034 85.1872428,38.5650348 C85.4799019,38.801321 86.5809719,38.4966677 86.9515934,38.0936617 C89.515959,35.2834146 90.4551068,32.517546 88.6439787,29.2551166 C87.6532557,27.473974 86.2991075,25.8811408 84.9929363,24.2967036 C84.1977192,23.3311684 83.7779212,22.3836245 84.146144,21.1542164 C84.3812308,20.3637969 84.6103205,19.5577849 84.8442079,18.7505735 L84.8466068,18.7469752 C85.1932399,17.5427549 85.8685148,16.6563816 85.8685148,16.6563816 C85.8685148,16.6563816 86.1635728,16.2473785 87.1099172,15.1822912 L87.1123161,15.1822912 C87.3426052,15.7184331 87.8739494,16.7403412 88.5432272,16.6503845 C88.4724613,16.5820174 88.1989929,15.7820025 88.1989929,15.1846901 C88.3633138,15.1882884 88.5372301,15.193086 88.7159441,15.1990832 C88.9534298,15.7460199 89.6970718,17.2213097 90.7273758,17.068983 C90.6302225,16.9910205 90.2751935,16.0134911 90.3147744,15.295037 C92.0407435,15.4437654 94.008996,15.7712077 95.5106731,16.4716705 C95.7145749,16.5532313 96.7292865,17.4707896 97.4249516,17.4432028 C98.1625965,17.5439543 98.6375678,17.8102262 98.9590131,17.4024225 C98.9734061,17.3592433 99.3272358,17.6507029 99.5827128,17.4276103 C99.8705742,17.1925235 100.39832,16.7535348 100.6478,16.2281877 C100.732959,16.2425808 101.618133,15.8863523 101.607338,15.5445169 C101.493393,15.2482595 101.682902,15.2446612 100.977641,14.5154123 Z"/>
      </g>
    </g>
    <g transform="translate(8 323)">
      <g transform="translate(94.724 .218)">
        <text fill="#000000" font-family="FuturaPT-Book, Futura PT" font-size="8" font-weight="300">
          <tspan x="11.488" y="8">Вт</tspan>
        </text>
        <path stroke="#FAC51C" stroke-width=".5" d="M0,21 L30,21" stroke-linecap="square"/>
        <text fill="#9E9E9E" font-family="GothamPro-Light, Gotham Pro" font-size="20" font-weight="300">
          <tspan x=".4" y="43">O3</tspan>
        </text>
      </g>
      <g transform="translate(140.724 .218)">
        <text fill="#000000" font-family="FuturaPT-Book, Futura PT" font-size="8" font-weight="300">
          <tspan x="11.312" y="8">Ср</tspan>
        </text>
        <path stroke="#FAC51C" stroke-width=".5" d="M1,21 L31,21" stroke-linecap="square"/>
        <text fill="#9E9E9E" font-family="GothamPro-Light, Gotham Pro" font-size="20" font-weight="300">
          <tspan x=".86" y="43">O4</tspan>
        </text>
      </g>
      <g transform="translate(188.724 .218)">
        <text fill="#000000" font-family="FuturaPT-Book, Futura PT" font-size="8" font-weight="300">
          <tspan x="11.248" y="8">Чт</tspan>
        </text>
        <path stroke="#FAC51C" stroke-width=".5" d="M0,21 L30,21" stroke-linecap="square"/>
        <text fill="#9E9E9E" font-family="GothamPro-Light, Gotham Pro" font-size="20" font-weight="300">
          <tspan x=".45" y="43">O5</tspan>
        </text>
      </g>
      <g transform="translate(235.724 .218)">
        <text fill="#000000" font-family="FuturaPT-Book, Futura PT" font-size="8" font-weight="300">
          <tspan x="10.96" y="8">Пт</tspan>
        </text>
        <path stroke="#FAC51C" stroke-width=".5" d="M0,21 L30,21" stroke-linecap="square"/>
        <text fill="#9E9E9E" font-family="GothamPro-Light, Gotham Pro" font-size="20" font-weight="300">
          <tspan x=".08" y="43">O6</tspan>
        </text>
      </g>
      <g transform="translate(281.724 .218)">
        <text fill="#000000" font-family="FuturaPT-Book, Futura PT" font-size="8" font-weight="300">
          <tspan x="11.32" y="8">Сб</tspan>
        </text>
        <path stroke="#FAC51C" stroke-width=".5" d="M0.5,21 L30.5,21" stroke-linecap="square"/>
        <text fill="#9E9E9E" font-family="GothamPro-Light, Gotham Pro" font-size="20" font-weight="300">
          <tspan x="1.13" y="43">O7</tspan>
        </text>
      </g>
      <g transform="translate(328.724 .218)">
        <text fill="#000000" font-family="FuturaPT-Book, Futura PT" font-size="8" font-weight="300">
          <tspan x="12.128" y="8">Вс</tspan>
        </text>
        <path stroke="#FAC51C" stroke-width=".5" d="M0.5,21 L30.5,21" stroke-linecap="square"/>
        <text fill="#9E9E9E" font-family="GothamPro-Light, Gotham Pro" font-size="20" font-weight="300">
          <tspan x=".7" y="43">O8</tspan>
        </text>
      </g>
      <g transform="translate(375.724 .218)">
        <text fill="#000000" font-family="FuturaPT-Book, Futura PT" font-size="8" font-weight="300">
          <tspan x="11.448" y="8">Пн</tspan>
        </text>
        <path stroke="#FAC51C" stroke-width=".5" d="M0.5,21 L30.5,21" stroke-linecap="square"/>
        <text fill="#9E9E9E" font-family="GothamPro-Light, Gotham Pro" font-size="20" font-weight="300">
          <tspan x=".58" y="43">O9</tspan>
        </text>
      </g>
      <g transform="translate(422.724 .218)">
        <text fill="#000000" font-family="FuturaPT-Book, Futura PT" font-size="8" font-weight="300">
          <tspan x="12.488" y="8">Вт</tspan>
        </text>
        <path stroke="#FAC51C" stroke-width=".5" d="M0.5,21 L30.5,21" stroke-linecap="square"/>
        <text fill="#9E9E9E" font-family="GothamPro-Light, Gotham Pro" font-size="20" font-weight="300">
          <tspan x="3.65" y="43">1O</tspan>
        </text>
      </g>
      <g transform="translate(469.724 .218)">
        <text fill="#000000" font-family="FuturaPT-Book, Futura PT" font-size="8" font-weight="300">
          <tspan x="11.312" y="8">Ср</tspan>
        </text>
        <path stroke="#FAC51C" stroke-width=".5" d="M0.5,21 L30.5,21" stroke-linecap="square"/>
        <text fill="#9E9E9E" font-family="GothamPro-Light, Gotham Pro" font-size="20" font-weight="300">
          <tspan x="8.8" y="43">11</tspan>
        </text>
      </g>
      <g transform="translate(516.724 .218)">
        <text fill="#000000" font-family="FuturaPT-Book, Futura PT" font-size="8" font-weight="300">
          <tspan x="12.248" y="8">Чт</tspan>
        </text>
        <path stroke="#FAC51C" stroke-width=".5" d="M0.5,21 L30.5,21" stroke-linecap="square"/>
        <text fill="#9E9E9E" font-family="GothamPro-Light, Gotham Pro" font-size="20" font-weight="300">
          <tspan x="6.25" y="43">12</tspan>
        </text>
      </g>
      <g transform="translate(563.724 .218)">
        <text fill="#000000" font-family="FuturaPT-Book, Futura PT" font-size="8" font-weight="300">
          <tspan x="11.96" y="8">Пт</tspan>
        </text>
        <path stroke="#FAC51C" stroke-width=".5" d="M0.5,21 L30.5,21" stroke-linecap="square"/>
        <text fill="#9E9E9E" font-family="GothamPro-Light, Gotham Pro" font-size="20" font-weight="300">
          <tspan x="6.05" y="43">13</tspan>
        </text>
      </g>
      <g transform="translate(610.724 .218)">
        <text fill="#000000" font-family="FuturaPT-Book, Futura PT" font-size="8" font-weight="300">
          <tspan x="11.32" y="8">Сб</tspan>
        </text>
        <path stroke="#FAC51C" stroke-width=".5" d="M0.5,21 L30.5,21" stroke-linecap="square"/>
        <text fill="#9E9E9E" font-family="GothamPro-Light, Gotham Pro" font-size="20" font-weight="300">
          <tspan x="5.51" y="43">14</tspan>
        </text>
      </g>
      <g transform="translate(657.724 .218)">
        <text fill="#000000" font-family="FuturaPT-Book, Futura PT" font-size="8" font-weight="300">
          <tspan x="12.128" y="8">Вс</tspan>
        </text>
        <path stroke="#FAC51C" stroke-width=".5" d="M0.5,21 L30.5,21" stroke-linecap="square"/>
        <text fill="#9E9E9E" font-family="GothamPro-Light, Gotham Pro" font-size="20" font-weight="300">
          <tspan x="6.1" y="43">15</tspan>
        </text>
      </g>
      <g transform="translate(704.724 .218)">
        <text fill="#000000" font-family="FuturaPT-Book, Futura PT" font-size="8" font-weight="300">
          <tspan x="11.448" y="8">Пн</tspan>
        </text>
        <path stroke="#FAC51C" stroke-width=".5" d="M0.5,21 L30.5,21" stroke-linecap="square"/>
        <text fill="#9E9E9E" font-family="GothamPro-Light, Gotham Pro" font-size="20" font-weight="300">
          <tspan x="5.73" y="43">16</tspan>
        </text>
      </g>
      <g transform="translate(751.724 .218)">
        <text fill="#000000" font-family="FuturaPT-Book, Futura PT" font-size="8" font-weight="300">
          <tspan x="12.488" y="8">Вт</tspan>
        </text>
        <path stroke="#FAC51C" stroke-width=".5" d="M0.5,21 L30.5,21" stroke-linecap="square"/>
        <text fill="#9E9E9E" font-family="GothamPro-Light, Gotham Pro" font-size="20" font-weight="300">
          <tspan x="6.28" y="43">17</tspan>
        </text>
      </g>
      <g transform="translate(799.724 .218)">
        <text fill="#000000" font-family="FuturaPT-Book, Futura PT" font-size="8" font-weight="300">
          <tspan x="10.312" y="8">Ср</tspan>
        </text>
        <path stroke="#FAC51C" stroke-width=".5" d="M0,21 L30,21" stroke-linecap="square"/>
        <text fill="#9E9E9E" font-family="GothamPro-Light, Gotham Pro" font-size="20" font-weight="300">
          <tspan x="4.85" y="43">18</tspan>
        </text>
      </g>
      <g transform="translate(846.724 .218)">
        <text fill="#000000" font-family="FuturaPT-Book, Futura PT" font-size="8" font-weight="300">
          <tspan x="11.248" y="8">Чт</tspan>
        </text>
        <path stroke="#FAC51C" stroke-width=".5" d="M0,21 L30,21" stroke-linecap="square"/>
        <text fill="#9E9E9E" font-family="GothamPro-Light, Gotham Pro" font-size="20" font-weight="300">
          <tspan x="4.73" y="43">19</tspan>
        </text>
      </g>
      <g transform="translate(893.724 .218)">
        <text fill="#000000" font-family="FuturaPT-Book, Futura PT" font-size="8" font-weight="300">
          <tspan x="10.96" y="8">Пт</tspan>
        </text>
        <path stroke="#FAC51C" stroke-width=".5" d="M0,21 L30,21" stroke-linecap="square"/>
        <text fill="#9E9E9E" font-family="GothamPro-Light, Gotham Pro" font-size="20" font-weight="300">
          <tspan x=".1" y="43">2O</tspan>
        </text>
      </g>
      <g transform="translate(940.724 .218)">
        <text fill="#000000" font-family="FuturaPT-Book, Futura PT" font-size="8" font-weight="300">
          <tspan x="10.32" y="8">Сб</tspan>
        </text>
        <path stroke="#FAC51C" stroke-width=".5" d="M0,21 L30,21" stroke-linecap="square"/>
        <text fill="#9E9E9E" font-family="GothamPro-Light, Gotham Pro" font-size="20" font-weight="300">
          <tspan x="5.25" y="43">21</tspan>
        </text>
      </g>
      <g transform="translate(987.724 .218)">
        <text fill="#000000" font-family="FuturaPT-Book, Futura PT" font-size="8" font-weight="300">
          <tspan x="11.128" y="8">Вс</tspan>
        </text>
        <path stroke="#FAC51C" stroke-width=".5" d="M0,21 L30,21" stroke-linecap="square"/>
        <text fill="#9E9E9E" font-family="GothamPro-Light, Gotham Pro" font-size="20" font-weight="300">
          <tspan x="2.7" y="43">22</tspan>
        </text>
      </g>
      <g transform="translate(1034.724 .218)">
        <text fill="#000000" font-family="FuturaPT-Book, Futura PT" font-size="8" font-weight="300">
          <tspan x="10.448" y="8">Пн</tspan>
        </text>
        <path stroke="#FAC51C" stroke-width=".5" d="M0,21 L30,21" stroke-linecap="square"/>
        <text fill="#9E9E9E" font-family="GothamPro-Light, Gotham Pro" font-size="20" font-weight="300">
          <tspan x="2.5" y="43">23</tspan>
        </text>
      </g>
      <g transform="translate(1081.724 .218)">
        <text fill="#000000" font-family="FuturaPT-Book, Futura PT" font-size="8" font-weight="300">
          <tspan x="11.488" y="8">Вт</tspan>
        </text>
        <path stroke="#FAC51C" stroke-width=".5" d="M0,21 L30,21" stroke-linecap="square"/>
        <text fill="#9E9E9E" font-family="GothamPro-Light, Gotham Pro" font-size="20" font-weight="300">
          <tspan x="2.26" y="43">24</tspan>
        </text>
      </g>
      <g transform="translate(1128.724 .218)">
        <text fill="#000000" font-family="FuturaPT-Book, Futura PT" font-size="8" font-weight="300">
          <tspan x="10.312" y="8">Ср</tspan>
        </text>
        <path stroke="#FAC51C" stroke-width=".5" d="M0,21 L30,21" stroke-linecap="square"/>
        <text fill="#9E9E9E" font-family="GothamPro-Light, Gotham Pro" font-size="20" font-weight="300">
          <tspan x="2.55" y="43">25</tspan>
        </text>
      </g>
      <g transform="translate(1175.724 .218)">
        <text fill="#000000" font-family="FuturaPT-Book, Futura PT" font-size="8" font-weight="300">
          <tspan x="11.248" y="8">Чт</tspan>
        </text>
        <path stroke="#FAC51C" stroke-width=".5" d="M0,21 L30,21" stroke-linecap="square"/>
        <text fill="#9E9E9E" font-family="GothamPro-Light, Gotham Pro" font-size="20" font-weight="300">
          <tspan x="2.18" y="43">26</tspan>
        </text>
      </g>
      <g transform="translate(1222.724 .218)">
        <text fill="#000000" font-family="FuturaPT-Book, Futura PT" font-size="8" font-weight="300">
          <tspan x="10.96" y="8">Пт</tspan>
        </text>
        <path stroke="#FAC51C" stroke-width=".5" d="M0,21 L30,21" stroke-linecap="square"/>
        <text fill="#9E9E9E" font-family="GothamPro-Light, Gotham Pro" font-size="20" font-weight="300">
          <tspan x="2.88" y="43">27</tspan>
        </text>
      </g>
      <g transform="translate(1269.724 .218)">
        <text fill="#000000" font-family="FuturaPT-Book, Futura PT" font-size="8" font-weight="300">
          <tspan x="10.32" y="8">Сб</tspan>
        </text>
        <path stroke="#FAC51C" stroke-width=".5" d="M0,21 L30,21" stroke-linecap="square"/>
        <text fill="#9E9E9E" font-family="GothamPro-Light, Gotham Pro" font-size="20" font-weight="300">
          <tspan x="2.3" y="43">28</tspan>
        </text>
      </g>
      <g transform="translate(1316.724 .218)">
        <text fill="#000000" font-family="FuturaPT-Book, Futura PT" font-size="8" font-weight="300">
          <tspan x="11.128" y="8">Вс</tspan>
        </text>
        <path stroke="#FAC51C" stroke-width=".5" d="M0,21 L30,21" stroke-linecap="square"/>
        <text fill="#9E9E9E" font-family="GothamPro-Light, Gotham Pro" font-size="20" font-weight="300">
          <tspan x="2.18" y="43">29</tspan>
        </text>
      </g>
      <g transform="translate(1363.724 .218)">
        <text fill="#000000" font-family="FuturaPT-Book, Futura PT" font-size="8" font-weight="300">
          <tspan x="10.448" y="8">Пн</tspan>
        </text>
        <path stroke="#FAC51C" stroke-width=".5" d="M0,21 L30,21" stroke-linecap="square"/>
        <text fill="#9E9E9E" font-family="GothamPro-Light, Gotham Pro" font-size="20" font-weight="300">
          <tspan x="1.3" y="43">30</tspan>
        </text>
      </g>
      <g transform="translate(1410.724 .218)">
        <text fill="#000000" font-family="FuturaPT-Book, Futura PT" font-size="8" font-weight="300">
          <tspan x="11.488" y="8">Вт</tspan>
        </text>
        <path stroke="#FAC51C" stroke-width=".5" d="M0,21 L30,21" stroke-linecap="square"/>
        <text fill="#9E9E9E" font-family="GothamPro-Light, Gotham Pro" font-size="20" font-weight="300">
          <tspan x="5.05" y="43">31</tspan>
        </text>
      </g>
      <g transform="translate(47.318 .218)">
        <text fill="#000000" font-family="FuturaPT-Book, Futura PT" font-size="8" font-weight="300">
          <tspan x="10.448" y="8">Пн</tspan>
        </text>
        <path stroke="#FAC51C" stroke-width=".5" d="M0,21 L30,21" stroke-linecap="square"/>
        <text fill="#9E9E9E" font-family="GothamPro-Light, Gotham Pro" font-size="20" font-weight="300">
          <tspan x=".6" y="43">O2</tspan>
        </text>
      </g>
      <g transform="translate(.318 .218)">
        <text fill="#000000" font-family="FuturaPT-Book, Futura PT" font-size="8" font-weight="300">
          <tspan x="11.128" y="8">Вс</tspan>
        </text>
        <path stroke="#FAC51C" stroke-width=".5" d="M0,21 L30,21" stroke-linecap="square"/>
        <text fill="#9E9E9E" font-family="GothamPro-Light, Gotham Pro" font-size="20" font-weight="300">
          <tspan x="3.15" y="43">O1</tspan>
        </text>
      </g>
    </g>
    <g fill="#FFFFFF" stroke="#2E2F41" transform="translate(394 215)">
      <circle cx="5" cy="82" r="5"/>
      <circle cx="522" cy="65" r="5"/>
      <circle cx="846" cy="5" r="5"/>
      <circle cx="284" cy="49" r="5"/>
    </g>
    <g stroke="#2E2F41" stroke-width="1.5" transform="translate(22 126)" stroke-linecap="round" stroke-linejoin="round">
      <polyline points="0 0 10 9 20 0" transform="rotate(-90 716.167 -682.833)"/>
      <polyline points="0 0 10 9 20 0" transform="rotate(90 7.5 7.5)"/>
    </g>
  </g>
</svg>
