<svg xmlns="http://www.w3.org/2000/svg" viewBox="0 0 1455 402" xmlns:xlink="http://www.w3.org/1999/xlink">
  <defs>
    <linearGradient id="a" x1="55.546%" x2="55.546%" y1="61.535%" y2=".753%">
      <stop stop-color="#CDE0E6" offset="0%"/>
      <stop stop-color="#FFFFFF" offset="100%"/>
    </linearGradient>
    <linearGradient id="b" x1="2.013%" x2="71.293%" y1="2.441%" y2="63.318%">
      <stop stop-color="#FFF500" stop-opacity=".411" offset="0%"/>
      <stop stop-color="#47E3F8" offset="100%"/>
    </linearGradient>
    <filter id="c" width="200%" height="200%" x="-50%" y="-50%" filterUnits="objectBoundingBox">
      <feGaussianBlur stdDeviation="50" in="SourceGraphic"/>
    </filter>
    <linearGradient id="d" x1="7.107%" x2="102.932%" y1="75.591%" y2="75.591%">
      <stop stop-color="#56B4FF" offset="0%"/>
      <stop stop-color="#00FF2A" offset="28.175%"/>
      <stop stop-color="#5AD3E0" offset="51.399%"/>
      <stop stop-color="#4258ED" offset="76.59%"/>
      <stop stop-color="#47F894" offset="100%"/>
    </linearGradient>
    <filter id="e" width="200%" height="200%" x="-50%" y="-50%" filterUnits="objectBoundingBox">
      <feGaussianBlur stdDeviation="-7.91748764 49.3691542" in="SourceGraphic"/>
    </filter>
    <filter id="f" width="200%" height="200%" x="-50%" y="-50%" filterUnits="objectBoundingBox">
      <feGaussianBlur stdDeviation="10" in="SourceGraphic"/>
    </filter>
    <linearGradient id="g" x1="50%" x2="50%" y1="31.548%" y2="114.532%">
      <stop stop-color="#FFFFFF" offset="0%"/>
      <stop stop-color="#FFFFFF" stop-opacity="0" offset="100%"/>
    </linearGradient>
    <radialGradient id="h" cy="2.689%" r="92.763%" fx="50%" fy="2.689%">
      <stop stop-color="#FFFFFF" offset="0%"/>
      <stop stop-color="#F6F6F6" offset="100%"/>
    </radialGradient>
    <linearGradient id="i" x1="50%" x2="50%" y1="1.531%" y2="96.516%">
      <stop stop-color="#70C5D9" offset="0%"/>
      <stop stop-color="#3E606B" offset="100%"/>
    </linearGradient>
    <radialGradient id="j" cy="0%" r="100%" fx="50%" fy="0%">
      <stop stop-color="#D5F7FF" offset="0%"/>
      <stop stop-color="#6EBAD2" offset="100%"/>
    </radialGradient>
    <path id="k" d="M35,227 C148,227 349,297 458,297 C567,297 620,238 716,238 C812,238 852,280 976,280 C1100,280 1175,219 1259,219 C1343,219 1380,250 1491,256 L1490.00859,402 L35,402"/>
    <linearGradient id="m" x1="50%" x2="50%" y1="6.798%" y2="100%">
      <stop stop-color="#FFFFEF" stop-opacity=".467" offset="0%"/>
      <stop stop-color="#FFFFFF" offset="100%"/>
    </linearGradient>
    <path id="l" d="M36,227 C149,227 350,297 459,297 C568,297 621,238 717,238 C813,238 853,280 977,280 C1101,280 1176,219 1260,219 C1344,219 1381,250 1492,256 L1491.00859,402 L36,402"/>
    <linearGradient id="n" x1="50%" x2="50%" y1="0%" y2="97.575%">
      <stop stop-color="#646464" offset="0%"/>
      <stop stop-color="#CECECE" offset="100%"/>
    </linearGradient>
  </defs>
  <g fill="none" fill-rule="evenodd">
    <g transform="translate(-36)">
      <rect width="1455" height="402" x="36" class="calendar__layout" fill="url(#a)"/>
      <circle cx="764" cy="340" r="222" fill="url(#b)" opacity=".304" filter="url(#c)"/>
      <rect width="1519" height="34" y="232.5" fill="url(#d)" opacity=".3" filter="url(#e)"/>
      <g fill="#FEFCCC" transform="translate(525 105)">
        <circle cx="25" cy="25" r="25" style="mix-blend-mode:lighten" filter="url(#f)"/>
        <circle cx="25" cy="25" r="25"/>
      </g>
      <g fill="url(#g)" transform="translate(177 92)">
        <path d="M907.357928 50.4616927C901.20754 50.4616927 895.440024 52.3841981 890.727442 55.7485825 883.807237 45.4639934 871.987087 38.6374701 858.623231 38.6374701 854.77822 38.6374701 851.030964 39.2117779 847.475144 40.2748582 845.165694 17.681347 826.034321 0 802.776894 0 780.476647 0 762.025483 16.1498597 758.465589 37.4888546 756.449403 37.1059828 754.429143 37.0041552 752.311128 37.0041552 742.030612 37.0041552 732.703203 40.853239 725.591562 47.1991359 720.496108 39.0284881 711.461962 33.6438439 701.079619 33.6438439 691.947718 33.6438439 683.874825 37.7739719 678.587935 44.3113048 671.476295 36.723111 661.383142 31.9127744 650.235054 31.9127744 631.103682 31.9127744 615.247086 45.8509383 612.074137 64.0210579 601.88323 65.1696734 593.231956 71.7070062 589 80.6474708L935.902245 80.6474708C935.902245 80.1668445 935.999999 79.5884636 935.999999 79.0141559 936.004072 63.247168 923.218597 50.4616927 907.357928 50.4616927zM1202.20206 79.2326748C1200.75856 77.974973 1199.31507 76.7140952 1197.86998 75.4516293 1194.6368 73.3205234 1191.08919 72.0993457 1187.23033 71.7880963 1185.31678 71.8929048 1183.40323 71.9961253 1181.4881 72.1009337 1177.49267 72.8742933 1173.95776 74.5972813 1170.88815 77.2698977 1170.06397 77.9956171 1169.32237 78.7991488 1168.62206 79.6376167 1168.27905 79.5216922 1167.93128 79.4168837 1167.58509 79.3088992 1166.28134 74.6274535 1163.32605 70.3287175 1159.229 67.6973893 1155.55276 65.3344344 1152.68799 64.5642508 1148.37497 64.0068602 1146.15176 63.7178429 1143.89043 63.9131678 1141.70851 64.4816744 1141.06696 60.1337102 1139.19152 55.987423 1136.26165 52.6637236 1134.77686 51.3663215 1133.2889 50.0673315 1131.80252 48.7715175 1128.47406 46.5753033 1124.82164 45.3191895 1120.84686 45L1114.93471 45.3223655C1110.82177 46.1179572 1107.18364 47.8949374 1104.02351 50.6437782 1099.58026 54.5566283 1096.8076 60.1591183 1096.3582 66.0585657 1096.1454 68.8598107 1096.48841 71.6626437 1097.28877 74.3241441 1094.73525 73.7286413 1092.14045 73.661945 1089.50436 74.1415232 1081.12603 75.7120625 1074.69778 82.9025599 1074.04987 91.3936353 1073.95618 92.6116369 1073.99905 93.8153465 1074.14039 95L1207.69657 95C1207.98241 89.2704694 1206.00058 83.5441148 1202.20206 79.2326748z"/>
        <path d="M236.851515,92.5424242 C232.275758,92.5424242 227.984848,93.9727273 224.478788,96.4757576 C219.330303,88.8242424 210.536364,83.7454545 200.593939,83.7454545 C197.733333,83.7454545 194.945455,84.1727273 192.3,84.9636364 C190.581818,68.1545455 176.348485,55 159.045455,55 C142.454545,55 128.727273,67.0151515 126.078788,82.8909091 C124.578788,82.6060606 123.075758,82.530303 121.5,82.530303 C113.851515,82.530303 106.912121,85.3939394 101.621212,90.1151515 C97.830303,84.0363636 91.1090909,80.030303 83.3848485,80.030303 C76.5909091,80.030303 70.5848485,83.1030303 66.6515152,87.9666667 C61.3606061,82.3212121 53.8515152,78.7424242 45.5575758,78.7424242 C31.3242424,78.7424242 19.5272727,89.1121212 17.1666667,102.630303 C9.58484848,103.484848 3.14848485,108.348485 0,115 L258.087879,115 C258.087879,114.642424 258.160606,114.212121 258.160606,113.784848 C258.163636,102.054545 248.651515,92.5424242 236.851515,92.5424242 Z" transform="matrix(-1 0 0 1 258.16 0)"/>
      </g>
      <g transform="translate(28 113)">
        <g fill="url(#h)" transform="translate(0 45)">
          <polygon points="320.5 74 341 138.624 300 138.624"/>
          <polygon points="338.5 95 359 159.624 318 159.624"/>
          <polygon points="350.5 111 371 175.624 330 175.624"/>
          <polygon points="851.119 30.679 879.119 118.946 823.119 118.946"/>
          <polygon points="1076.5 61 1097 125.624 1056 125.624"/>
          <polygon points="1096.5 39 1117 103.624 1076 103.624"/>
          <polygon points="1124.867 19 1153.734 110 1096 110"/>
          <polygon points="1143.867 37.5 1161.631 93.5 1126.103 93.5"/>
          <polygon points="1163.5 18 1184 82.624 1143 82.624"/>
          <polygon points="1076.5 61 1097 125.624 1056 125.624"/>
          <polygon points="1096.5 39 1117 103.624 1076 103.624"/>
          <polygon points="62.867 0 91.734 91 34 91"/>
          <polygon points="140.5 54.5 153.338 94.972 127.662 94.972"/>
          <polygon points="89.764 27 107.529 83 72 83"/>
          <polygon points="114 5 144 99.572 84 99.572"/>
          <polygon points="415.5 99 435 160.472 396 160.472"/>
          <polygon points="491.838 106 504.677 146.472 479 146.472"/>
          <polygon points="439.764 87 457.529 143 422 143"/>
          <polygon points="465 56 495 150.572 435 150.572"/>
          <polygon points="20.5 7 41 71.624 0 71.624"/>
          <polygon points="39.5 34 60 98.624 19 98.624"/>
          <polygon points="1366.5 63 1387 127.624 1346 127.624"/>
          <polygon points="1386.5 41 1407 105.624 1366 105.624"/>
          <polygon points="1414.867 21 1443.734 112 1386 112"/>
          <polygon points="1439.764 59 1457.529 115 1422 115"/>
          <polygon points="1460.5 37 1481 101.624 1440 101.624"/>
          <polygon points="831.5 50 852 114.624 811 114.624"/>
          <polygon points="904.5 69 925 133.624 884 133.624"/>
        </g>
        <polygon fill="url(#i)" points="201.121 0 251.241 158 151 158"/>
        <polygon fill="#FFFFFF" points="794.319 110.043 805.909 146.581 782.729 146.581" opacity=".5"/>
        <polygon fill="url(#j)" points="251.121 55.409 285.121 162.591 217.121 162.591"/>
        <polygon fill="#4381A1" points="291.121 111.571 311.06 174.429 271.181 174.429"/>
        <polygon fill="url(#i)" points="812 98 832 161.048 792 161.048"/>
        <polygon fill="#67ABC0" points="868.44 84 896.879 173.653 840 173.653"/>
        <polygon fill="#4381A1" points="891.121 121.571 911.06 184.429 871.181 184.429"/>
        <polygon fill="url(#j)" points="954.121 10 1004.241 168 904 168"/>
        <polygon fill="url(#i)" points="1012.56 48.804 1055 182.591 970.121 182.591"/>
        <polygon fill="#4482A2" points="1054.94 99 1074.879 161.858 1035 161.858"/>
        <polygon fill="#6EBAD2" points="1294.121 17.681 1331.121 134.319 1257.121 134.319"/>
        <polygon fill="url(#i)" points="1336.5 48 1364.94 137.653 1308.06 137.653"/>
        <polygon fill="#4482A2" points="1364.94 98 1379.169 142.858 1350.71 142.858"/>
      </g>
      <use fill="#FFFFFF" xlink:href="#k"/>
      <use fill="url(#m)" xlink:href="#l"/>
    </g>
    <g transform="translate(8 323)" class="calendar__days-container">
      <g class="calendar__day" transform="translate(94.724 .218)">
        <text fill="#000000" font-family="FuturaPT-Book, Futura PT" font-size="8" font-weight="300">
          <tspan x="11.488" y="8">Вт</tspan>
        </text>
        <path stroke="#FAC51C" stroke-width=".5" d="M0,21 L30,21" stroke-linecap="square"/>
        <text fill="#9E9E9E" font-family="GothamPro-Light, Gotham Pro" font-size="20" font-weight="300">
          <tspan x=".4" y="43">O3</tspan>
        </text>
      </g>
      <g class="calendar__day" transform="translate(140.724 .218)">
        <text fill="#000000" font-family="FuturaPT-Book, Futura PT" font-size="8" font-weight="300">
          <tspan x="11.312" y="8">Ср</tspan>
        </text>
        <path stroke="#FAC51C" stroke-width=".5" d="M1,21 L31,21" stroke-linecap="square"/>
        <text fill="#9E9E9E" font-family="GothamPro-Light, Gotham Pro" font-size="20" font-weight="300">
          <tspan x=".86" y="43">O4</tspan>
        </text>
      </g>
      <g class="calendar__day" transform="translate(188.724 .218)">
        <text fill="#000000" font-family="FuturaPT-Book, Futura PT" font-size="8" font-weight="300">
          <tspan x="11.248" y="8">Чт</tspan>
        </text>
        <path stroke="#FAC51C" stroke-width=".5" d="M0,21 L30,21" stroke-linecap="square"/>
        <text fill="#9E9E9E" font-family="GothamPro-Light, Gotham Pro" font-size="20" font-weight="300">
          <tspan x=".45" y="43">O5</tspan>
        </text>
      </g>
      <g class="calendar__day" transform="translate(235.724 .218)">
        <text fill="#000000" font-family="FuturaPT-Book, Futura PT" font-size="8" font-weight="300">
          <tspan x="10.96" y="8">Пт</tspan>
        </text>
        <path stroke="#FAC51C" stroke-width=".5" d="M0,21 L30,21" stroke-linecap="square"/>
        <text fill="#9E9E9E" font-family="GothamPro-Light, Gotham Pro" font-size="20" font-weight="300">
          <tspan x=".08" y="43">O6</tspan>
        </text>
      </g>
      <g class="calendar__day" transform="translate(281.724 .218)">
        <text fill="#000000" font-family="FuturaPT-Book, Futura PT" font-size="8" font-weight="300">
          <tspan x="11.32" y="8">Сб</tspan>
        </text>
        <path stroke="#FAC51C" stroke-width=".5" d="M0.5,21 L30.5,21" stroke-linecap="square"/>
        <text fill="#9E9E9E" font-family="GothamPro-Light, Gotham Pro" font-size="20" font-weight="300">
          <tspan x="1.13" y="43">O7</tspan>
        </text>
      </g>
      <g class="calendar__day" transform="translate(328.724 .218)">
        <text fill="#000000" font-family="FuturaPT-Book, Futura PT" font-size="8" font-weight="300">
          <tspan x="12.128" y="8">Вс</tspan>
        </text>
        <path stroke="#FAC51C" stroke-width=".5" d="M0.5,21 L30.5,21" stroke-linecap="square"/>
        <text fill="#9E9E9E" font-family="GothamPro-Light, Gotham Pro" font-size="20" font-weight="300">
          <tspan x=".7" y="43">O8</tspan>
        </text>
      </g>
      <g class="calendar__day" transform="translate(375.724 .218)">
        <text fill="#000000" font-family="FuturaPT-Book, Futura PT" font-size="8" font-weight="300">
          <tspan x="11.448" y="8">Пн</tspan>
        </text>
        <path stroke="#FAC51C" stroke-width=".5" d="M0.5,21 L30.5,21" stroke-linecap="square"/>
        <text fill="#9E9E9E" font-family="GothamPro-Light, Gotham Pro" font-size="20" font-weight="300">
          <tspan x=".58" y="43">O9</tspan>
        </text>
      </g>
      <g class="calendar__day" transform="translate(422.724 .218)">
        <text fill="#000000" font-family="FuturaPT-Book, Futura PT" font-size="8" font-weight="300">
          <tspan x="12.488" y="8">Вт</tspan>
        </text>
        <path stroke="#FAC51C" stroke-width=".5" d="M0.5,21 L30.5,21" stroke-linecap="square"/>
        <text fill="#9E9E9E" font-family="GothamPro-Light, Gotham Pro" font-size="20" font-weight="300">
          <tspan x="3.65" y="43">1O</tspan>
        </text>
      </g>
      <g class="calendar__day" transform="translate(469.724 .218)">
        <text fill="#000000" font-family="FuturaPT-Book, Futura PT" font-size="8" font-weight="300">
          <tspan x="11.312" y="8">Ср</tspan>
        </text>
        <path stroke="#FAC51C" stroke-width=".5" d="M0.5,21 L30.5,21" stroke-linecap="square"/>
        <text fill="#9E9E9E" font-family="GothamPro-Light, Gotham Pro" font-size="20" font-weight="300">
          <tspan x="8.8" y="43">11</tspan>
        </text>
      </g>
      <g class="calendar__day" transform="translate(516.724 .218)">
        <text fill="#000000" font-family="FuturaPT-Book, Futura PT" font-size="8" font-weight="300">
          <tspan x="12.248" y="8">Чт</tspan>
        </text>
        <path stroke="#FAC51C" stroke-width=".5" d="M0.5,21 L30.5,21" stroke-linecap="square"/>
        <text fill="#9E9E9E" font-family="GothamPro-Light, Gotham Pro" font-size="20" font-weight="300">
          <tspan x="6.25" y="43">12</tspan>
        </text>
      </g>
      <g class="calendar__day" transform="translate(563.724 .218)">
        <text fill="#000000" font-family="FuturaPT-Book, Futura PT" font-size="8" font-weight="300">
          <tspan x="11.96" y="8">Пт</tspan>
        </text>
        <path stroke="#FAC51C" stroke-width=".5" d="M0.5,21 L30.5,21" stroke-linecap="square"/>
        <text fill="#9E9E9E" font-family="GothamPro-Light, Gotham Pro" font-size="20" font-weight="300">
          <tspan x="6.05" y="43">13</tspan>
        </text>
      </g>
      <g class="calendar__day" transform="translate(610.724 .218)">
        <text fill="#000000" font-family="FuturaPT-Book, Futura PT" font-size="8" font-weight="300">
          <tspan x="11.32" y="8">Сб</tspan>
        </text>
        <path stroke="#FAC51C" stroke-width=".5" d="M0.5,21 L30.5,21" stroke-linecap="square"/>
        <text fill="#9E9E9E" font-family="GothamPro-Light, Gotham Pro" font-size="20" font-weight="300">
          <tspan x="5.51" y="43">14</tspan>
        </text>
      </g>
      <g class="calendar__day" transform="translate(657.724 .218)">
        <text fill="#000000" font-family="FuturaPT-Book, Futura PT" font-size="8" font-weight="300">
          <tspan x="12.128" y="8">Вс</tspan>
        </text>
        <path stroke="#FAC51C" stroke-width=".5" d="M0.5,21 L30.5,21" stroke-linecap="square"/>
        <text fill="#2E2F41" font-family="GothamPro-Medium, Gotham Pro" font-size="20" font-weight="400">
          <tspan x="5.32" y="43">15</tspan>
        </text>
      </g>
      <g class="calendar__day" transform="translate(704.724 .218)">
        <text fill="#000000" font-family="FuturaPT-Book, Futura PT" font-size="8" font-weight="300">
          <tspan x="11.448" y="8">Пн</tspan>
        </text>
        <path stroke="#FAC51C" stroke-width=".5" d="M0.5,21 L30.5,21" stroke-linecap="square"/>
        <text fill="#9E9E9E" font-family="GothamPro-Light, Gotham Pro" font-size="20" font-weight="300">
          <tspan x="5.73" y="43">16</tspan>
        </text>
      </g>
      <g class="calendar__day" transform="translate(751.724 .218)">
        <text fill="#000000" font-family="FuturaPT-Book, Futura PT" font-size="8" font-weight="300">
          <tspan x="12.488" y="8">Вт</tspan>
        </text>
        <path stroke="#FAC51C" stroke-width=".5" d="M0.5,21 L30.5,21" stroke-linecap="square"/>
        <text fill="#9E9E9E" font-family="GothamPro-Light, Gotham Pro" font-size="20" font-weight="300">
          <tspan x="6.28" y="43">17</tspan>
        </text>
      </g>
      <g class="calendar__day" transform="translate(799.724 .218)">
        <text fill="#000000" font-family="FuturaPT-Book, Futura PT" font-size="8" font-weight="300">
          <tspan x="10.312" y="8">Ср</tspan>
        </text>
        <path stroke="#FAC51C" stroke-width=".5" d="M0,21 L30,21" stroke-linecap="square"/>
        <text fill="#9E9E9E" font-family="GothamPro-Light, Gotham Pro" font-size="20" font-weight="300">
          <tspan x="4.85" y="43">18</tspan>
        </text>
      </g>
      <g class="calendar__day" transform="translate(846.724 .218)">
        <text fill="#000000" font-family="FuturaPT-Book, Futura PT" font-size="8" font-weight="300">
          <tspan x="11.248" y="8">Чт</tspan>
        </text>
        <path stroke="#FAC51C" stroke-width=".5" d="M0,21 L30,21" stroke-linecap="square"/>
        <text fill="#9E9E9E" font-family="GothamPro-Light, Gotham Pro" font-size="20" font-weight="300">
          <tspan x="4.73" y="43">19</tspan>
        </text>
      </g>
      <g class="calendar__day" transform="translate(893.724 .218)">
        <text fill="#000000" font-family="FuturaPT-Book, Futura PT" font-size="8" font-weight="300">
          <tspan x="10.96" y="8">Пт</tspan>
        </text>
        <path stroke="#FAC51C" stroke-width=".5" d="M0,21 L30,21" stroke-linecap="square"/>
        <text fill="#9E9E9E" font-family="GothamPro-Light, Gotham Pro" font-size="20" font-weight="300">
          <tspan x=".1" y="43">2O</tspan>
        </text>
      </g>
      <g class="calendar__day" transform="translate(940.724 .218)">
        <text fill="#000000" font-family="FuturaPT-Book, Futura PT" font-size="8" font-weight="300">
          <tspan x="10.32" y="8">Сб</tspan>
        </text>
        <path stroke="#FAC51C" stroke-width=".5" d="M0,21 L30,21" stroke-linecap="square"/>
        <text fill="#9E9E9E" font-family="GothamPro-Light, Gotham Pro" font-size="20" font-weight="300">
          <tspan x="5.25" y="43">21</tspan>
        </text>
      </g>
      <g class="calendar__day" transform="translate(987.724 .218)">
        <text fill="#000000" font-family="FuturaPT-Book, Futura PT" font-size="8" font-weight="300">
          <tspan x="11.128" y="8">Вс</tspan>
        </text>
        <path stroke="#FAC51C" stroke-width=".5" d="M0,21 L30,21" stroke-linecap="square"/>
        <text fill="#9E9E9E" font-family="GothamPro-Light, Gotham Pro" font-size="20" font-weight="300">
          <tspan x="2.7" y="43">22</tspan>
        </text>
      </g>
      <g class="calendar__day" transform="translate(1034.724 .218)">
        <text fill="#000000" font-family="FuturaPT-Book, Futura PT" font-size="8" font-weight="300">
          <tspan x="10.448" y="8">Пн</tspan>
        </text>
        <path stroke="#FAC51C" stroke-width=".5" d="M0,21 L30,21" stroke-linecap="square"/>
        <text fill="#9E9E9E" font-family="GothamPro-Light, Gotham Pro" font-size="20" font-weight="300">
          <tspan x="2.5" y="43">23</tspan>
        </text>
      </g>
      <g class="calendar__day" transform="translate(1081.724 .218)">
        <text fill="#000000" font-family="FuturaPT-Book, Futura PT" font-size="8" font-weight="300">
          <tspan x="11.488" y="8">Вт</tspan>
        </text>
        <path stroke="#FAC51C" stroke-width=".5" d="M0,21 L30,21" stroke-linecap="square"/>
        <text fill="#9E9E9E" font-family="GothamPro-Light, Gotham Pro" font-size="20" font-weight="300">
          <tspan x="2.26" y="43">24</tspan>
        </text>
      </g>
      <g class="calendar__day" transform="translate(1128.724 .218)">
        <text fill="#000000" font-family="FuturaPT-Book, Futura PT" font-size="8" font-weight="300">
          <tspan x="10.312" y="8">Ср</tspan>
        </text>
        <path stroke="#FAC51C" stroke-width=".5" d="M0,21 L30,21" stroke-linecap="square"/>
        <text fill="#9E9E9E" font-family="GothamPro-Light, Gotham Pro" font-size="20" font-weight="300">
          <tspan x="2.55" y="43">25</tspan>
        </text>
      </g>
      <g class="calendar__day" transform="translate(1175.724 .218)">
        <text fill="#000000" font-family="FuturaPT-Book, Futura PT" font-size="8" font-weight="300">
          <tspan x="11.248" y="8">Чт</tspan>
        </text>
        <path stroke="#FAC51C" stroke-width=".5" d="M0,21 L30,21" stroke-linecap="square"/>
        <text fill="#9E9E9E" font-family="GothamPro-Light, Gotham Pro" font-size="20" font-weight="300">
          <tspan x="2.18" y="43">26</tspan>
        </text>
      </g>
      <g class="calendar__day" transform="translate(1222.724 .218)">
        <text fill="#000000" font-family="FuturaPT-Book, Futura PT" font-size="8" font-weight="300">
          <tspan x="10.96" y="8">Пт</tspan>
        </text>
        <path stroke="#FAC51C" stroke-width=".5" d="M0,21 L30,21" stroke-linecap="square"/>
        <text fill="#9E9E9E" font-family="GothamPro-Light, Gotham Pro" font-size="20" font-weight="300">
          <tspan x="2.88" y="43">27</tspan>
        </text>
      </g>
      <g class="calendar__day" transform="translate(1269.724 .218)">
        <text fill="#000000" font-family="FuturaPT-Book, Futura PT" font-size="8" font-weight="300">
          <tspan x="10.32" y="8">Сб</tspan>
        </text>
        <path stroke="#FAC51C" stroke-width=".5" d="M0,21 L30,21" stroke-linecap="square"/>
        <text fill="#9E9E9E" font-family="GothamPro-Light, Gotham Pro" font-size="20" font-weight="300">
          <tspan x="2.3" y="43">28</tspan>
        </text>
      </g>
      <g class="calendar__day" transform="translate(1316.724 .218)">
        <text fill="#000000" font-family="FuturaPT-Book, Futura PT" font-size="8" font-weight="300">
          <tspan x="11.128" y="8">Вс</tspan>
        </text>
        <path stroke="#FAC51C" stroke-width=".5" d="M0,21 L30,21" stroke-linecap="square"/>
        <text fill="#9E9E9E" font-family="GothamPro-Light, Gotham Pro" font-size="20" font-weight="300">
          <tspan x="2.18" y="43">29</tspan>
        </text>
      </g>
      <g class="calendar__day" transform="translate(1363.724 .218)">
        <text fill="#000000" font-family="FuturaPT-Book, Futura PT" font-size="8" font-weight="300">
          <tspan x="10.448" y="8">Пн</tspan>
        </text>
        <path stroke="#FAC51C" stroke-width=".5" d="M0,21 L30,21" stroke-linecap="square"/>
        <text fill="#9E9E9E" font-family="GothamPro-Light, Gotham Pro" font-size="20" font-weight="300">
          <tspan x="1.3" y="43">30</tspan>
        </text>
      </g>
      <g class="calendar__day" transform="translate(1410.724 .218)">
        <text fill="#000000" font-family="FuturaPT-Book, Futura PT" font-size="8" font-weight="300">
          <tspan x="11.488" y="8">Вт</tspan>
        </text>
        <path stroke="#FAC51C" stroke-width=".5" d="M0,21 L30,21" stroke-linecap="square"/>
        <text fill="#9E9E9E" font-family="GothamPro-Light, Gotham Pro" font-size="20" font-weight="300">
          <tspan x="5.05" y="43">31</tspan>
        </text>
      </g>
      <g class="calendar__day" transform="translate(47.318 .218)">
        <text fill="#000000" font-family="FuturaPT-Book, Futura PT" font-size="8" font-weight="300">
          <tspan x="10.448" y="8">Пн</tspan>
        </text>
        <path stroke="#FAC51C" stroke-width=".5" d="M0,21 L30,21" stroke-linecap="square"/>
        <text fill="#9E9E9E" font-family="GothamPro-Light, Gotham Pro" font-size="20" font-weight="300">
          <tspan x=".6" y="43">O2</tspan>
        </text>
      </g>
      <g class="calendar__day" transform="translate(.318 .218)">
        <text fill="#000000" font-family="FuturaPT-Book, Futura PT" font-size="8" font-weight="300">
          <tspan x="11.128" y="8">Вс</tspan>
        </text>
        <path stroke="#FAC51C" stroke-width=".5" d="M0,21 L30,21" stroke-linecap="square"/>
        <text fill="#9E9E9E" font-family="GothamPro-Light, Gotham Pro" font-size="20" font-weight="300">
          <tspan x="3.15" y="43">O1</tspan>
        </text>
      </g>
    </g>
    <g transform="translate(650 170)">
      <path fill="url(#n)" d="M100.098357,85.8729592 C97.4992863,85.8616839 85.813895,85.318499 87.5572879,86.673896 C85.4709718,85.7370703 89.3284844,85.4801142 89.3284844,85.4801142 C88.344918,84.6793231 86.7965754,83.7354699 84.6718751,82.7667354 C80.7571365,81.0160587 74.9963274,79.1691273 67.4719191,77.8590357 C66.0524809,77.3994077 64.6652756,76.9314135 63.0143448,76.414379 C55.6113783,74.1141863 48.5086166,70.7112993 46.0980272,69.6477866 C45.0138345,69.4603605 43.9365922,69.6589694 43.9365922,69.6589694 L45.021277,70.0626552 C44.8471678,70.0864491 44.6472918,70.0980697 44.4238559,70.092942 C49.4019375,71.9034263 51.3728257,73.1287206 52.4520617,73.9150764 C54.8270993,74.6120792 57.0394089,75.7582434 58.4951035,76.6317774 C58.320529,76.6155577 58.1353082,76.5959894 57.9587146,76.5783751 C55.269111,76.3232124 52.9482876,76.1958837 51.1559472,76.1347075 C52.7521652,76.103452 54.6686986,76.1221153 56.8886282,76.2424174 C53.9988264,75.3554815 50.7901494,74.6691267 48.6652245,73.7072888 C45.8150611,72.4440574 39.9635532,69.6491076 39.8336446,69.5919658 C38.7586862,69.3939784 37.8326829,69.6304195 37.8326829,69.6304195 L38.6013896,69.9429444 L38.195562,70.0599187 C38.195562,70.0599187 43.1713895,71.668987 44.9084126,73.6298089 C49.1581723,74.9518136 48.6590851,74.8071831 50.0148972,76.1015571 C49.4889579,76.0898969 49.023812,76.0832924 48.6326258,76.0807418 C47.6991329,76.0746295 47.1846712,76.089499 47.1846712,76.089499 C44.4334438,76.081581 42.3392597,76.2055047 40.9517212,76.3246233 C32.2234154,74.6488961 27.7472207,74.7417548 25.3866295,73.6674219 C23.0625233,72.6210347 22.9094475,70.3443047 22.568333,69.5397285 C21.3521008,69.2394122 19.6739406,69.4056312 19.6739406,69.4056312 L20.3341046,69.8215085 C20.0209892,69.8310901 19.7091983,69.8325196 19.4241246,69.8241476 C21.0274564,70.6876188 22.3862226,73.1651108 22.276664,74.2992882 C24.9485776,74.7296166 27.013298,75.2801376 28.5511471,75.7965909 C30.1692907,76.1087698 32.7645166,76.6162258 33.5102449,76.7880319 C31.7635838,76.5090895 30.0122801,76.2529768 29.6870382,76.2057735 C22.5603459,75.0788863 10.8822308,72.977945 5.41676015,70.7178829 C3.88338215,70.0574798 1.31803042,69.0641836 1.26539107,69.0436872 C0.107372394,68.9623364 1.20792265e-13,69.5808401 1.20792265e-13,69.5808401 L1.47378356,69.9824601 C1.37658993,70.0661058 1.230238,70.1375792 1.0071526,70.1890856 C4.60406719,71.3288667 10.8067137,73.0392262 13.9274952,74.6754634 C19.6101339,75.8297104 22.6009158,76.2496162 26.5757561,78.538329 C27.6364415,79.1604699 28.8623475,79.7519588 30.2282546,80.2842373 C28.8125253,80.1097324 27.5533236,80.0480796 26.887368,80.1813704 C30.1728028,82.489551 35.8246787,82.2359948 37.1064504,82.1423547 C39.4404736,82.5265786 41.9628063,82.7195611 44.6273772,82.6532631 C44.8840907,82.6438923 45.1204244,82.6329077 45.3222928,82.6140258 C48.4881962,82.4794009 53.8054441,82.3107594 58.4476806,82.3679905 C60.0048188,82.3850016 61.5850137,82.4913731 63.0467313,82.6092219 C68.2664783,83.2530719 76.312081,84.7393745 87.196681,88.2316231 C81.8744912,88.1146892 82.8187201,89.2147324 85.6325099,90.2690165 C86.3104012,90.1304778 87.8888172,89.8556417 89.8740715,89.5230251 C89.7153418,89.6418465 89.5761924,89.7611289 89.4540452,89.8805874 C89.0973357,90.0321422 88.8672183,90.3637302 88.3958663,90.6109773 C85.1211988,90.7928427 83.5091802,91.3555276 83.7198152,91.9720621 C83.9141735,92.5930493 84.6883546,93.5592304 85.232292,93.5002914 C85.7682218,93.4373552 84.6240691,92.87247 84.964867,92.1037426 C85.222844,91.5260018 87.4997571,91.4109845 88.5693306,91.3873839 C88.5666854,91.4132308 88.5760061,92.1287241 88.9866055,92.6311047 C89.0619568,92.7051607 89.3099807,93.0530986 89.332933,93.1486381 C89.5222701,94.081249 89.8464623,94.5295442 90.9918518,95.1285192 C92.1270329,95.7287511 94.2925157,96.137771 92.6235519,95.5245793 C91.3893277,95.0750059 91.1916245,94.6039131 91.3738143,94.259706 C91.8617854,94.4816211 92.3852271,94.6872521 92.9358397,94.878498 C93.0109025,94.9038761 93.0978654,94.9330127 93.1685992,94.9603623 C95.4116818,95.7504757 97.6830625,96.4064143 100.621118,96.8789795 C103.12335,97.2758994 101.4826,96.7988907 100.661951,96.6676661 C97.4179346,96.1064805 94.6257042,94.9579899 92.935775,93.5696077 C92.3029098,93.0615484 91.9009721,92.5059948 91.8649369,91.9119323 C91.8414726,91.588475 91.9300627,91.2513723 92.1487579,90.9056619 C93.0133797,91.3351478 94.0107321,91.7596901 94.9513058,92.1251204 C96.7060836,92.8099431 96.0560917,92.2620932 95.4781463,92.0363751 C93.0818262,91.050305 92.9897252,90.2771746 93.2507197,89.8130197 C93.3345461,89.5912334 93.9246131,89.1782689 94.503377,88.7452229 C99.3183317,87.9437035 104.267081,87.1449953 104.666019,87.1336744 C105.385395,87.1127253 102.688653,85.8773016 100.098357,85.8729592 Z" opacity=".3"/>
      <path fill="#FFFFFF" d="M59.335224,24.3129527 C57.4165918,24.4850205 49.4504613,26.3191415 48.6982356,23.0673645 C48.5406337,25.3430754 51.8746379,25.7899949 51.8746379,25.7899949 C52.409114,27.7466952 52.7715223,30.1015879 52.754011,32.5729689 C52.7235565,37.1304818 51.4140139,42.0869483 47.5226927,45.6569747 C47.1892162,46.9155061 46.9021827,48.2052533 46.4826722,49.6381366 C44.5785059,56.131793 45.7167421,66.4177935 46.0479345,69.8035702 C45.4251404,70.3509895 43.7714622,69.5804912 43.7714622,69.5804912 L43.8354166,68.3105394 C43.5955876,68.2176532 43.3610881,68.1635965 43.1456226,68.1635965 C43.6686783,62.6284948 42.7580894,58.9336051 42.0606818,56.6152578 C42.7885439,54.6387621 42.4573514,51.3923146 42.0416478,48.9635698 C41.9183071,49.0062061 41.791921,49.0579787 41.6693417,49.1044218 C39.7689822,49.7728976 37.9417134,50.0881015 36.4562962,50.2266694 C37.9409521,50.341635 39.6182325,50.3233623 41.3678424,50.0249084 C40.5135942,52.4726872 38.9588931,54.3593423 38.9588931,57.0987227 C38.9588931,60.7730557 39.6974142,69.2980259 39.7073119,69.4777073 C39.0974609,70.053297 37.5587484,69.2020943 37.5587484,69.2020943 L37.5838733,68.2351645 L36.8925566,67.8285972 C36.8925566,67.8285972 38.1191108,63.0282099 35.6035708,57.1976998 C36.9054998,53.5066168 36.7319092,53.9063319 35.4985028,50.2982374 C35.0500606,50.3210783 34.6465387,50.330976 34.3016418,50.330976 C33.4786094,50.330976 32.9920991,50.2807261 32.9920991,50.2807261 C30.5488885,50.2525557 28.4650407,49.8764429 27.0268279,49.5285004 C22.0086911,53.9405932 17.7778025,53.5781849 17.3895079,56.5063831 C17.0073041,59.4079336 21.0554658,66.1094419 22.3337926,68.5633116 C21.7338394,69.4365938 19.713946,68.8366405 19.713946,68.8366405 L19.5434009,67.5880068 C19.2144926,67.5446092 18.9030955,67.5263365 18.6373802,67.5392797 C18.5543917,64.9963306 15.4480348,57.8402893 13.5004708,54.6692166 C15.2531261,53.546969 16.2505103,52.0881994 16.8215318,50.7207933 C17.7793252,49.9122269 19.2921515,48.6019229 19.6834915,48.1572875 C18.5726644,48.8699223 17.4153942,49.5224095 17.1991674,49.6427047 C12.5442002,52.5389257 5.04935272,58.0694592 3.41470853,64.3940933 C3.00433441,66.290646 2.14018856,69.178492 2.12267723,69.2386396 C1.11691804,69.4510596 0,67.5994273 0,67.5994273 L0.788771022,66.4482479 C0.561123787,66.1992826 0.30606752,65.9853399 0.00913634389,65.8284993 C1.6765191,62.6026085 4.88642125,57.8958687 5.3302953,53.4464692 C8.77698103,50.4489871 10.8326584,49.3876485 11.0816238,43.4695817 C11.1478623,41.8943238 11.4013958,40.4127133 11.8536448,39.093273 C10.8867151,39.5104994 9.90151269,39.6460218 9.16527564,39.3003634 C9.01681005,33.6464893 13.9900266,34.3362833 15.1670922,34.577635 C16.5893164,33.6617165 18.403642,33.2102289 20.6694553,33.3830581 C20.891773,33.4066603 21.0996248,33.4340693 21.2899653,33.4805124 C24.0605616,33.8132276 28.6409154,34.2167494 32.3396119,34.0515339 C33.5798706,33.9974772 34.7021182,33.7218641 35.707116,33.4173193 C38.9223477,31.7712547 43.0085775,28.0139333 46.1636616,19.5201789 C42.3728402,20.0059279 41.579501,17.5056151 42.2456928,15.0624045 C42.9210208,15.3357334 44.4353698,15.8671641 46.3311612,16.5059468 C46.0532641,16.2508905 45.7898328,15.9943116 45.5393447,15.7369712 C45.0764366,15.421006 44.4673471,14.7053257 43.8003939,14.1883609 C41.1950132,13.942441 39.3144491,12.7927844 38.7007913,11.4596395 C38.0825654,10.1280174 37.4795667,8.05635145 37.9348612,8.15685123 C38.3893943,8.26572599 38.2523491,9.50598468 39.4324602,11.1254016 C40.3369583,12.3527172 42.120068,12.4973759 42.9179754,12.4973759 C42.8829528,12.4417965 41.9830229,10.9068907 41.6495463,9.81814309 C41.6114782,9.65749571 41.3594674,8.90983824 41.2589676,8.70731595 C40.269197,6.74452474 39.966175,5.79739042 40.0636293,4.5038364 C40.1557541,3.21561191 41.1752178,2.26695487 40.7336279,3.60695197 C40.401674,4.59367711 40.8166163,5.57583408 41.3518538,6.28009392 C41.42799,5.79434497 41.5482852,5.34133459 41.7043644,4.91725596 C42.3895902,2.99253285 43.1806453,1.52767238 44.624949,0.392481651 C45.8484577,-0.568357181 45.297993,0.497549605 44.8967552,0.815037555 C43.3473836,2.15122785 42.7794075,4.66067697 43.2773383,7.63684099 C43.4593038,8.73853179 43.8696779,9.93539284 44.5983013,11.2038219 C44.9980164,11.8989454 45.4997539,12.6207166 46.1111276,13.357715 C46.1629002,12.3816489 46.3174567,11.4131965 46.5093199,10.5779824 C46.8641146,9.02023573 47.1107959,10.2216649 46.9958302,10.737107 C46.5869788,12.993784 47.556954,14.6832462 48.3799863,15.6897668 C48.7477242,16.1755157 49.7542447,17.0609797 50.7927425,17.9982163 C55.481971,19.5346448 60.3295628,21.0626983 60.6379144,21.0626983 C61.19447,21.0634597 61.2500494,24.1492598 59.335224,24.3129527 Z"/>
    </g>
    <g transform="translate(60 215)">
      <circle cx="5" cy="18" r="5" fill="#FFFFFF" stroke="#2E2F41"/>
      <circle cx="338" cy="82" r="5" fill="#FFFFFF" stroke="#2E2F41"/>
      <circle cx="620.5" cy="23" r="10" fill="#FFED00"/>
      <circle cx="856" cy="65" r="5" fill="#FFFFFF" stroke="#2E2F41"/>
      <circle cx="1180" cy="5" r="5" fill="#FFFFFF" stroke="#2E2F41"/>
    </g>
    <g stroke="#2E2F41" stroke-width="1.5" transform="translate(21 124)" stroke-linecap="round" stroke-linejoin="round">
      <polyline class="calendar__prev-month" points="0 0 10 9 20 0" transform="rotate(-90 716.167 -682.833)"/>
      <polyline class="calendar__next-month" points="0 0 10 9 20 0" transform="rotate(90 7.5 7.5)"/>
    </g>
  </g>
</svg>
