[
  {
    "mapLinkId": 1,
    "position": {
      "lat": 48,
      "lng": 65
    },
    "image": "./pic/map-baloon-1.png",
    "address": "ул. Тестовая",
    "phone": "(727) 338-37-00",
    "workTime": "Тестовый"
  },
  {
    "mapLinkId": 2,
    "position": {
      "lat": 51.13747,
      "lng": 71.4701842
    },
    "image": "./pic/map-baloon-1.png",
    "address": "ул. Гоголя 58, уг.ул. Панфилова",
    "phone": "(727) 338-37-00; 8 (800) 080-59-00",
    "workTime": "круглосуточно, без перерывов и выходных"
  }
]